<?xml version="1.0" encoding="UTF-8"?>
<!DOCTYPE svg PUBLIC "-//W3C//DTD SVG 1.1//EN" "http://www.w3.org/Graphics/SVG/1.1/DTD/svg11.dtd">
<svg version="1.2" width="123.36mm" height="47.36mm" viewBox="1720 13346 12336 4736" preserveAspectRatio="xMidYMid" fill-rule="evenodd" stroke-width="28.222" stroke-linejoin="round" xmlns="http://www.w3.org/2000/svg" xmlns:ooo="http://xml.openoffice.org/svg/export" xmlns:xlink="http://www.w3.org/1999/xlink" xmlns:presentation="http://sun.com/xmlns/staroffice/presentation" xmlns:smil="http://www.w3.org/2001/SMIL20/" xmlns:anim="urn:oasis:names:tc:opendocument:xmlns:animation:1.0" xml:space="preserve">
 <defs class="ClipPathGroup">
  <clipPath id="presentation_clip_path" clipPathUnits="userSpaceOnUse">
   <rect x="1720" y="13346" width="12336" height="4736"/>
  </clipPath>
  <clipPath id="presentation_clip_path_shrink" clipPathUnits="userSpaceOnUse">
   <rect x="1732" y="13350" width="12312" height="4727"/>
  </clipPath>
 </defs>
 <defs>
  <font id="EmbeddedFont_1" horiz-adv-x="2048">
   <font-face font-family="Liberation Serif embedded" units-per-em="2048" font-weight="normal" font-style="normal" ascent="1799" descent="423"/>
   <missing-glyph horiz-adv-x="2048" d="M 0,0 L 2047,0 2047,2047 0,2047 0,0 Z"/>
   <glyph unicode="4" horiz-adv-x="980" d="M 810,295 L 810,0 638,0 638,295 40,295 40,428 695,1348 810,1348 810,438 992,438 992,295 810,295 Z M 638,1113 L 633,1113 153,438 638,438 638,1113 Z"/>
   <glyph unicode="3" horiz-adv-x="875" d="M 944,365 C 944,304 933,250 912,203 891,155 860,115 820,82 779,49 730,23 671,6 612,-11 544,-20 469,-20 403,-20 339,-16 277,-8 215,0 159,10 109,23 L 98,305 164,305 209,117 C 221,110 237,104 256,97 275,90 296,85 319,80 341,75 364,71 388,68 411,65 433,63 453,63 515,63 566,71 606,86 645,101 677,123 700,151 723,178 738,211 747,250 756,288 760,330 760,375 760,427 753,470 738,505 723,539 703,567 678,588 652,609 622,624 588,634 553,643 516,649 477,651 L 334,659 334,741 477,750 C 552,754 608,777 644,820 680,863 698,927 698,1014 698,1057 694,1095 685,1128 676,1160 661,1187 642,1208 623,1229 598,1245 567,1256 536,1267 498,1272 453,1272 433,1272 413,1271 393,1268 372,1265 353,1261 334,1256 315,1251 298,1245 282,1239 266,1232 252,1226 240,1219 L 205,1055 139,1055 139,1313 C 162,1319 186,1325 209,1330 232,1335 257,1340 282,1344 307,1347 334,1350 362,1353 390,1355 420,1356 453,1356 594,1356 701,1329 774,1275 847,1221 883,1138 883,1026 883,984 877,945 866,909 855,872 837,840 813,812 789,784 759,761 722,742 685,723 641,709 590,702 711,688 801,653 858,598 915,542 944,464 944,365 Z"/>
   <glyph unicode="2" horiz-adv-x="848" d="M 911,0 L 90,0 90,147 C 157,210 219,266 276,316 332,365 383,412 428,455 473,498 512,539 546,578 579,617 607,658 630,701 652,744 669,790 680,839 691,888 696,944 696,1006 696,1093 676,1159 637,1204 598,1249 533,1272 444,1272 424,1272 404,1271 385,1268 365,1265 346,1261 328,1256 310,1251 293,1245 278,1239 262,1232 248,1226 236,1219 L 201,1055 135,1055 135,1313 C 186,1325 236,1335 285,1344 334,1352 387,1356 444,1356 591,1356 701,1326 775,1265 848,1204 885,1117 885,1006 885,951 878,901 864,854 849,807 829,763 802,720 775,677 743,634 704,593 665,551 621,508 572,463 523,418 469,371 410,321 351,270 288,215 221,154 L 911,154 911,0 Z"/>
   <glyph unicode="1" horiz-adv-x="742" d="M 627,80 L 901,53 901,0 180,0 180,53 455,80 455,1174 184,1077 184,1130 575,1352 627,1352 627,80 Z"/>
   <glyph unicode="0" horiz-adv-x="901" d="M 946,676 C 946,564 937,465 920,378 902,291 875,219 839,160 803,101 757,56 702,26 647,-5 581,-20 506,-20 365,-20 258,39 186,158 114,277 78,449 78,676 78,898 114,1068 186,1186 258,1303 367,1362 514,1362 655,1362 763,1304 836,1188 909,1071 946,901 946,676 Z M 762,676 C 762,772 758,858 750,933 741,1008 727,1072 708,1124 688,1175 662,1215 629,1242 596,1269 555,1282 506,1282 457,1282 416,1269 385,1242 353,1215 328,1175 310,1124 292,1072 280,1008 273,933 266,858 262,772 262,676 262,580 266,494 273,418 280,341 292,277 310,224 328,171 353,130 385,102 416,73 457,59 506,59 555,59 596,73 629,102 662,130 688,171 708,224 727,277 741,341 750,418 758,494 762,580 762,676 Z"/>
  </font>
 </defs>
 <defs>
  <font id="EmbeddedFont_2" horiz-adv-x="2048">
   <font-face font-family="Liberation Serif embedded" units-per-em="2048" font-weight="normal" font-style="italic" ascent="1799" descent="423"/>
   <missing-glyph horiz-adv-x="2048" d="M 0,0 L 2047,0 2047,2047 0,2047 0,0 Z"/>
   <glyph unicode="y" horiz-adv-x="1112" d="M 52,940 L 308,940 453,208 688,614 C 710,653 726,688 737,721 747,753 752,782 752,807 752,832 745,851 731,866 717,881 702,890 686,895 L 694,940 884,940 C 890,935 896,926 902,915 907,904 910,891 910,877 910,856 904,828 893,793 882,758 860,713 827,657 L 431,-9 C 392,-76 355,-136 320,-189 285,-242 250,-288 215,-325 180,-362 143,-391 105,-411 66,-431 24,-441 -22,-441 -39,-441 -54,-441 -68,-441 -80,-441 -92,-440 -104,-438 -114,-437 -125,-435 -136,-433 -147,-430 -158,-428 -171,-424 L -134,-221 -89,-221 -73,-317 C -56,-332 -29,-340 9,-340 38,-340 66,-332 93,-315 120,-298 145,-277 170,-251 194,-224 217,-195 238,-163 259,-131 277,-100 294,-70 L 339,12 156,870 44,895 52,940 Z"/>
   <glyph unicode="x" horiz-adv-x="927" d="M 248,236 C 227,215 209,197 196,182 182,167 171,153 163,142 155,130 150,119 147,110 144,101 142,92 142,84 142,73 146,65 154,59 161,53 171,48 184,45 L 176,0 -9,0 C -13,3 -17,9 -20,17 -23,24 -25,33 -25,43 -25,52 -22,63 -18,74 -12,85 -5,97 6,111 17,125 31,141 48,159 65,177 87,198 112,221 L 385,475 213,870 106,895 114,940 362,940 507,582 631,700 C 674,741 704,773 721,796 738,819 747,839 747,856 747,861 745,866 742,870 738,874 733,878 727,881 721,884 715,886 708,889 701,891 694,893 688,895 L 696,940 873,940 C 879,935 884,930 888,923 892,916 894,907 894,897 894,858 848,794 756,707 L 542,506 734,66 850,45 842,0 586,0 419,400 248,236 Z"/>
   <glyph unicode="n" horiz-adv-x="901" d="M 755,748 C 755,778 747,802 731,821 715,840 690,849 655,849 627,849 598,843 569,830 540,817 511,800 484,779 457,758 431,735 408,709 385,682 365,656 349,630 L 239,0 73,0 226,871 108,896 116,941 394,941 367,749 C 392,782 419,811 447,838 474,865 503,887 533,906 562,925 593,939 624,950 655,960 686,965 718,965 749,965 777,961 802,953 827,945 848,932 866,915 883,898 897,876 907,849 916,822 921,791 921,754 921,746 920,735 919,722 917,708 915,693 912,677 909,661 907,645 904,628 901,611 899,595 896,580 L 808,69 939,45 931,0 630,0 732,582 C 735,597 737,612 740,628 743,644 745,660 748,675 750,690 752,704 753,717 754,730 755,740 755,748 Z"/>
  </font>
 </defs>
 <defs>
  <font id="EmbeddedFont_3" horiz-adv-x="2048">
   <font-face font-family="OpenSymbol embedded" units-per-em="2048" font-weight="normal" font-style="normal" ascent="1402" descent="423"/>
   <missing-glyph horiz-adv-x="2048" d="M 0,0 L 2047,0 2047,2047 0,2047 0,0 Z"/>
   <glyph unicode="]" horiz-adv-x="398" d="M 428,-403 L 74,-403 74,-330 330,-330 330,1553 74,1553 74,1622 428,1622 428,-403 Z"/>
   <glyph unicode="[" horiz-adv-x="372" d="M 150,-403 L 150,1622 504,1622 504,1552 248,1552 248,-332 504,-332 504,-403 150,-403 Z"/>
  </font>
 </defs>
 <defs class="TextShapeIndex">
  <g ooo:slide="id1" ooo:id-list="id3 id4 id5 id6 id7 id8 id9 id10 id11 id12 id13 id14 id15 id16 id17 id18 id19 id20 id21 id22 id23 id24 id25 id26 id27 id28 id29 id30 id31 id32 id33 id34 id35 id36 id37 id38 id39 id40 id41 id42 id43 id44 id45"/>
 </defs>
 <defs class="EmbeddedBulletChars">
  <g id="bullet-char-template(57356)" transform="scale(0.00048828125,-0.00048828125)">
   <path d="M 580,1141 L 1163,571 580,0 -4,571 580,1141 Z"/>
  </g>
  <g id="bullet-char-template(57354)" transform="scale(0.00048828125,-0.00048828125)">
   <path d="M 8,1128 L 1137,1128 1137,0 8,0 8,1128 Z"/>
  </g>
  <g id="bullet-char-template(10146)" transform="scale(0.00048828125,-0.00048828125)">
   <path d="M 174,0 L 602,739 174,1481 1456,739 174,0 Z M 1358,739 L 309,1346 659,739 1358,739 Z"/>
  </g>
  <g id="bullet-char-template(10132)" transform="scale(0.00048828125,-0.00048828125)">
   <path d="M 2015,739 L 1276,0 717,0 1260,543 174,543 174,936 1260,936 717,1481 1274,1481 2015,739 Z"/>
  </g>
  <g id="bullet-char-template(10007)" transform="scale(0.00048828125,-0.00048828125)">
   <path d="M 0,-2 C -7,14 -16,27 -25,37 L 356,567 C 262,823 215,952 215,954 215,979 228,992 255,992 264,992 276,990 289,987 310,991 331,999 354,1012 L 381,999 492,748 772,1049 836,1024 860,1049 C 881,1039 901,1025 922,1006 886,937 835,863 770,784 769,783 710,716 594,584 L 774,223 C 774,196 753,168 711,139 L 727,119 C 717,90 699,76 672,76 641,76 570,178 457,381 L 164,-76 C 142,-110 111,-127 72,-127 30,-127 9,-110 8,-76 1,-67 -2,-52 -2,-32 -2,-23 -1,-13 0,-2 Z"/>
  </g>
  <g id="bullet-char-template(10004)" transform="scale(0.00048828125,-0.00048828125)">
   <path d="M 285,-33 C 182,-33 111,30 74,156 52,228 41,333 41,471 41,549 55,616 82,672 116,743 169,778 240,778 293,778 328,747 346,684 L 369,508 C 377,444 397,411 428,410 L 1163,1116 C 1174,1127 1196,1133 1229,1133 1271,1133 1292,1118 1292,1087 L 1292,965 C 1292,929 1282,901 1262,881 L 442,47 C 390,-6 338,-33 285,-33 Z"/>
  </g>
  <g id="bullet-char-template(9679)" transform="scale(0.00048828125,-0.00048828125)">
   <path d="M 813,0 C 632,0 489,54 383,161 276,268 223,411 223,592 223,773 276,916 383,1023 489,1130 632,1184 813,1184 992,1184 1136,1130 1245,1023 1353,916 1407,772 1407,592 1407,412 1353,268 1245,161 1136,54 992,0 813,0 Z"/>
  </g>
  <g id="bullet-char-template(8226)" transform="scale(0.00048828125,-0.00048828125)">
   <path d="M 346,457 C 273,457 209,483 155,535 101,586 74,649 74,723 74,796 101,859 155,911 209,963 273,989 346,989 419,989 480,963 531,910 582,859 608,796 608,723 608,648 583,586 532,535 482,483 420,457 346,457 Z"/>
  </g>
  <g id="bullet-char-template(8211)" transform="scale(0.00048828125,-0.00048828125)">
   <path d="M -4,459 L 1135,459 1135,606 -4,606 -4,459 Z"/>
  </g>
  <g id="bullet-char-template(61548)" transform="scale(0.00048828125,-0.00048828125)">
   <path d="M 173,740 C 173,903 231,1043 346,1159 462,1274 601,1332 765,1332 928,1332 1067,1274 1183,1159 1299,1043 1357,903 1357,740 1357,577 1299,437 1183,322 1067,206 928,148 765,148 601,148 462,206 346,322 231,437 173,577 173,740 Z"/>
  </g>
 </defs>
 <defs class="TextEmbeddedBitmaps"/>
 <g class="SlideGroup">
  <g>
   <g id="container-id1">
    <g id="id1" class="Slide" clip-path="url(#presentation_clip_path)">
     <g class="Page">
      <g class="OLE2">
       <g id="id3">
        <rect class="BoundingBox" stroke="none" fill="none" x="1720" y="17602" width="1027" height="481"/>
        <defs>
         <clipPath id="clip_path_1" clipPathUnits="userSpaceOnUse">
          <path d="M 1720,17595 L 2752,17595 2752,18071 1720,18071 1720,17595 Z"/>
         </clipPath>
        </defs>
        <g clip-path="url(#clip_path_1)">
         <text class="TextShape"><tspan class="TextParagraph" font-family="Liberation Serif, serif" font-size="422px" font-style="italic" font-weight="400"><tspan class="TextPosition" x="1879" y="17972"><tspan fill="rgb(0,0,0)" stroke="none">y</tspan></tspan></tspan></text>
         <text class="TextShape"><tspan class="TextParagraph" font-family="OpenSymbol" font-size="422px" font-weight="400"><tspan class="TextPosition" x="2117" y="17972"><tspan fill="rgb(0,0,0)" stroke="none">[</tspan></tspan></tspan></text>
         <text class="TextShape"><tspan class="TextParagraph" font-family="Liberation Serif, serif" font-size="422px" font-style="italic" font-weight="400"><tspan class="TextPosition" x="2276" y="17972"><tspan fill="rgb(0,0,0)" stroke="none">n</tspan></tspan></tspan></text>
         <text class="TextShape"><tspan class="TextParagraph" font-family="OpenSymbol" font-size="422px" font-weight="400"><tspan class="TextPosition" x="2540" y="17972"><tspan fill="rgb(0,0,0)" stroke="none">]</tspan></tspan></tspan></text>
        </g>
       </g>
      </g>
      <g class="Group">
       <g class="com.sun.star.drawing.CustomShape">
        <g id="id4">
         <rect class="BoundingBox" stroke="none" fill="none" x="12272" y="15797" width="837" height="1237"/>
         <path fill="none" stroke="rgb(0,0,0)" stroke-width="35" stroke-linejoin="round" d="M 12690,17015 L 12290,17015 12290,15815 13090,15815 13090,17015 12690,17015 Z"/>
        </g>
       </g>
       <g class="com.sun.star.drawing.CustomShape">
        <g id="id5">
         <rect class="BoundingBox" stroke="none" fill="none" x="12870" y="16507" width="243" height="343"/>
         <path fill="none" stroke="rgb(0,0,0)" stroke-width="40" stroke-linejoin="round" d="M 12890,16679 L 13090,16528 13090,16829 12890,16679 Z"/>
        </g>
       </g>
      </g>
      <g class="com.sun.star.drawing.LineShape">
       <g id="id6">
        <rect class="BoundingBox" stroke="none" fill="none" x="2243" y="13897" width="10025" height="353"/>
        <path fill="none" stroke="rgb(0,0,0)" stroke-width="35" stroke-linejoin="round" d="M 2261,14073 L 11762,14073"/>
        <path fill="rgb(0,0,0)" stroke="none" d="M 12267,14073 L 11739,13897 11739,14249 12267,14073 Z"/>
       </g>
      </g>
      <g class="com.sun.star.drawing.LineShape">
       <g id="id7">
        <rect class="BoundingBox" stroke="none" fill="none" x="13520" y="13826" width="437" height="37"/>
        <path fill="none" stroke="rgb(0,0,0)" stroke-width="35" stroke-linejoin="round" d="M 13538,13844 L 13938,13844"/>
       </g>
      </g>
      <g class="com.sun.star.drawing.LineShape">
       <g id="id8">
        <rect class="BoundingBox" stroke="none" fill="none" x="13907" y="13835" width="37" height="2208"/>
        <path fill="none" stroke="rgb(0,0,0)" stroke-width="35" stroke-linejoin="round" d="M 13925,16024 L 13925,13853"/>
       </g>
      </g>
      <g class="com.sun.star.drawing.LineShape">
       <g id="id9">
        <rect class="BoundingBox" stroke="none" fill="none" x="13141" y="15866" width="819" height="354"/>
        <path fill="none" stroke="rgb(0,0,0)" stroke-width="35" stroke-linejoin="round" d="M 13941,16042 L 13646,16042"/>
        <path fill="rgb(0,0,0)" stroke="none" d="M 13141,16042 L 13669,16218 13669,15866 13141,16042 Z"/>
       </g>
      </g>
      <g class="Group">
       <g class="com.sun.star.drawing.CustomShape">
        <g id="id10">
         <rect class="BoundingBox" stroke="none" fill="none" x="10515" y="15797" width="837" height="1237"/>
         <path fill="none" stroke="rgb(0,0,0)" stroke-width="35" stroke-linejoin="round" d="M 10933,17015 L 10533,17015 10533,15815 11333,15815 11333,17015 10933,17015 Z"/>
        </g>
       </g>
       <g class="com.sun.star.drawing.CustomShape">
        <g id="id11">
         <rect class="BoundingBox" stroke="none" fill="none" x="11113" y="16507" width="243" height="343"/>
         <path fill="none" stroke="rgb(0,0,0)" stroke-width="40" stroke-linejoin="round" d="M 11133,16679 L 11333,16528 11333,16829 11133,16679 Z"/>
        </g>
       </g>
      </g>
      <g class="com.sun.star.drawing.LineShape">
       <g id="id12">
        <rect class="BoundingBox" stroke="none" fill="none" x="7197" y="15866" width="819" height="354"/>
        <path fill="none" stroke="rgb(0,0,0)" stroke-width="35" stroke-linejoin="round" d="M 7997,16042 L 7702,16042"/>
        <path fill="rgb(0,0,0)" stroke="none" d="M 7197,16042 L 7725,16218 7725,15866 7197,16042 Z"/>
       </g>
      </g>
      <g class="Group">
       <g class="com.sun.star.drawing.CustomShape">
        <g id="id13">
         <rect class="BoundingBox" stroke="none" fill="none" x="6319" y="15797" width="837" height="1237"/>
         <path fill="none" stroke="rgb(0,0,0)" stroke-width="35" stroke-linejoin="round" d="M 6737,17015 L 6337,17015 6337,15815 7137,15815 7137,17015 6737,17015 Z"/>
        </g>
       </g>
       <g class="com.sun.star.drawing.CustomShape">
        <g id="id14">
         <rect class="BoundingBox" stroke="none" fill="none" x="6917" y="16507" width="242" height="343"/>
         <path fill="none" stroke="rgb(0,0,0)" stroke-width="40" stroke-linejoin="round" d="M 6937,16679 L 7137,16528 7137,16829 6937,16679 Z"/>
        </g>
       </g>
      </g>
      <g class="com.sun.star.drawing.LineShape">
       <g id="id15">
        <rect class="BoundingBox" stroke="none" fill="none" x="9585" y="15866" width="919" height="354"/>
        <path fill="none" stroke="rgb(0,0,0)" stroke-width="35" stroke-linejoin="round" d="M 10485,16042 L 10090,16042"/>
        <path fill="rgb(0,0,0)" stroke="none" d="M 9585,16042 L 10113,16218 10113,15866 9585,16042 Z"/>
       </g>
      </g>
      <g class="Group">
       <g class="com.sun.star.drawing.CustomShape">
        <g id="id16">
         <rect class="BoundingBox" stroke="none" fill="none" x="4524" y="15797" width="837" height="1237"/>
         <path fill="none" stroke="rgb(0,0,0)" stroke-width="35" stroke-linejoin="round" d="M 4942,17015 L 4542,17015 4542,15815 5342,15815 5342,17015 4942,17015 Z"/>
        </g>
       </g>
       <g class="com.sun.star.drawing.CustomShape">
        <g id="id17">
         <rect class="BoundingBox" stroke="none" fill="none" x="5122" y="16507" width="242" height="343"/>
         <path fill="none" stroke="rgb(0,0,0)" stroke-width="40" stroke-linejoin="round" d="M 5142,16679 L 5342,16528 5342,16829 5142,16679 Z"/>
        </g>
       </g>
      </g>
      <g class="com.sun.star.drawing.LineShape">
       <g id="id18">
        <rect class="BoundingBox" stroke="none" fill="none" x="5390" y="15866" width="919" height="354"/>
        <path fill="none" stroke="rgb(0,0,0)" stroke-width="35" stroke-linejoin="round" d="M 6290,16042 L 5895,16042"/>
        <path fill="rgb(0,0,0)" stroke="none" d="M 5390,16042 L 5918,16218 5918,15866 5390,16042 Z"/>
       </g>
      </g>
      <g class="Group">
       <g class="com.sun.star.drawing.CustomShape">
        <g id="id19">
         <rect class="BoundingBox" stroke="none" fill="none" x="2728" y="15797" width="837" height="1237"/>
         <path fill="none" stroke="rgb(0,0,0)" stroke-width="35" stroke-linejoin="round" d="M 3146,17015 L 2746,17015 2746,15815 3546,15815 3546,17015 3146,17015 Z"/>
        </g>
       </g>
       <g class="com.sun.star.drawing.CustomShape">
        <g id="id20">
         <rect class="BoundingBox" stroke="none" fill="none" x="3326" y="16507" width="242" height="343"/>
         <path fill="none" stroke="rgb(0,0,0)" stroke-width="40" stroke-linejoin="round" d="M 3346,16679 L 3546,16528 3546,16829 3346,16679 Z"/>
        </g>
       </g>
      </g>
      <g class="com.sun.star.drawing.LineShape">
       <g id="id21">
        <rect class="BoundingBox" stroke="none" fill="none" x="11340" y="13412" width="919" height="354"/>
        <path fill="none" stroke="rgb(0,0,0)" stroke-width="35" stroke-linejoin="round" d="M 11358,13589 L 11753,13589"/>
        <path fill="rgb(0,0,0)" stroke="none" d="M 12258,13589 L 11730,13413 11730,13765 12258,13589 Z"/>
       </g>
      </g>
      <g class="com.sun.star.drawing.LineShape">
       <g id="id22">
        <rect class="BoundingBox" stroke="none" fill="none" x="2225" y="16024" width="437" height="37"/>
        <path fill="none" stroke="rgb(0,0,0)" stroke-width="35" stroke-linejoin="round" d="M 2643,16042 L 2243,16042"/>
       </g>
      </g>
      <g class="com.sun.star.drawing.LineShape">
       <g id="id23">
        <rect class="BoundingBox" stroke="none" fill="none" x="2238" y="14077" width="37" height="1927"/>
        <path fill="none" stroke="rgb(0,0,0)" stroke-width="35" stroke-linejoin="round" d="M 2256,14095 L 2256,15985"/>
       </g>
      </g>
      <g class="com.sun.star.drawing.LineShape">
       <g id="id24">
        <rect class="BoundingBox" stroke="none" fill="none" x="2100" y="15873" width="354" height="1751"/>
        <path fill="none" stroke="rgb(0,0,0)" stroke-width="35" stroke-linejoin="round" d="M 2276,16108 L 2276,17118"/>
        <path fill="rgb(0,0,0)" stroke="none" d="M 2253,16122 L 2230,16116 2207,16104 2187,16088 2171,16068 2159,16045 2153,16022 2150,15999 2153,15976 2159,15952 2171,15930 2187,15910 2207,15894 2230,15883 2253,15875 2277,15873 2299,15875 2323,15883 2345,15894 2365,15910 2381,15930 2393,15952 2399,15976 2402,15999 2399,16022 2393,16045 2381,16068 2365,16088 2345,16104 2323,16116 2299,16122 2277,16125 2253,16122 Z"/>
        <path fill="rgb(0,0,0)" stroke="none" d="M 2276,17623 L 2452,17095 2100,17095 2276,17623 Z"/>
       </g>
      </g>
      <g class="com.sun.star.drawing.LineShape">
       <g id="id25">
        <rect class="BoundingBox" stroke="none" fill="none" x="9600" y="15347" width="4457" height="353"/>
        <path fill="none" stroke="rgb(0,0,0)" stroke-width="35" stroke-linejoin="round" d="M 13821,15523 L 10105,15523"/>
        <path fill="rgb(0,0,0)" stroke="none" d="M 13807,15500 L 13813,15477 13825,15454 13841,15434 13861,15418 13884,15406 13907,15400 13930,15397 13953,15400 13977,15406 13999,15418 14019,15434 14035,15454 14046,15477 14054,15500 14056,15524 14054,15546 14046,15570 14035,15592 14019,15612 13999,15628 13977,15640 13953,15646 13930,15649 13907,15646 13884,15640 13861,15628 13841,15612 13825,15592 13813,15570 13807,15546 13804,15524 13807,15500 Z"/>
        <path fill="rgb(0,0,0)" stroke="none" d="M 9600,15523 L 10128,15699 10128,15347 9600,15523 Z"/>
       </g>
      </g>
      <g class="Group">
       <g class="Group">
        <g class="com.sun.star.drawing.EllipseShape">
         <g id="id26">
          <rect class="BoundingBox" stroke="none" fill="none" x="12328" y="13348" width="214" height="952"/>
          <path fill="none" stroke="rgb(0,0,0)" stroke-width="40" stroke-linejoin="round" d="M 12351,13368 C 12398,13416 12431,13465 12460,13531 12502,13624 12521,13715 12521,13822 12521,13928 12502,14019 12460,14112 12430,14179 12396,14230 12348,14278"/>
         </g>
        </g>
        <g class="Group">
         <g class="com.sun.star.drawing.EllipseShape">
          <g id="id27">
           <rect class="BoundingBox" stroke="none" fill="none" x="12898" y="13353" width="625" height="941"/>
           <path fill="none" stroke="rgb(0,0,0)" stroke-width="40" stroke-linejoin="round" d="M 12918,13373 C 12919,13373 12919,13373 12920,13373 13027,13373 13118,13392 13211,13433 13304,13475 13370,13526 13424,13598 13478,13670 13502,13740 13502,13823 13502,13906 13478,13976 13424,14048 13370,14120 13304,14171 13211,14213 13118,14254 13027,14273 12920,14273 12919,14273 12919,14273 12919,14273"/>
          </g>
         </g>
         <g class="com.sun.star.drawing.LineShape">
          <g id="id28">
           <rect class="BoundingBox" stroke="none" fill="none" x="12328" y="13353" width="612" height="41"/>
           <path fill="none" stroke="rgb(0,0,0)" stroke-width="40" stroke-linejoin="round" d="M 12348,13373 L 12919,13373"/>
          </g>
         </g>
         <g class="com.sun.star.drawing.LineShape">
          <g id="id29">
           <rect class="BoundingBox" stroke="none" fill="none" x="12328" y="14253" width="612" height="41"/>
           <path fill="none" stroke="rgb(0,0,0)" stroke-width="40" stroke-linejoin="round" d="M 12348,14273 L 12919,14273"/>
          </g>
         </g>
        </g>
       </g>
       <g class="com.sun.star.drawing.EllipseShape">
        <g id="id30">
         <rect class="BoundingBox" stroke="none" fill="none" x="12177" y="13348" width="214" height="952"/>
         <path fill="none" stroke="rgb(0,0,0)" stroke-width="40" stroke-linejoin="round" d="M 12200,13368 C 12247,13416 12280,13465 12309,13531 12351,13624 12370,13715 12370,13822 12370,13928 12351,14019 12309,14112 12279,14179 12245,14230 12197,14278"/>
        </g>
       </g>
      </g>
      <g class="Group">
       <g class="Group">
        <g class="com.sun.star.drawing.EllipseShape">
         <g id="id31">
          <rect class="BoundingBox" stroke="none" fill="none" x="9309" y="15320" width="214" height="952"/>
          <path fill="none" stroke="rgb(0,0,0)" stroke-width="40" stroke-linejoin="round" d="M 9502,16250 C 9454,16202 9420,16151 9390,16084 9348,15991 9329,15900 9329,15794 9329,15687 9348,15596 9390,15503 9419,15437 9452,15388 9499,15340"/>
         </g>
        </g>
        <g class="Group">
         <g class="com.sun.star.drawing.EllipseShape">
          <g id="id32">
           <rect class="BoundingBox" stroke="none" fill="none" x="8328" y="15325" width="626" height="941"/>
           <path fill="none" stroke="rgb(0,0,0)" stroke-width="40" stroke-linejoin="round" d="M 8933,16245 C 8932,16245 8931,16245 8931,16245 8823,16245 8732,16226 8639,16185 8546,16143 8480,16092 8426,16020 8372,15948 8348,15878 8348,15795 8348,15712 8372,15642 8426,15570 8480,15498 8546,15447 8639,15405 8732,15364 8823,15345 8931,15345 8931,15345 8932,15345 8933,15345"/>
          </g>
         </g>
         <g class="com.sun.star.drawing.LineShape">
          <g id="id33">
           <rect class="BoundingBox" stroke="none" fill="none" x="8911" y="15325" width="612" height="41"/>
           <path fill="none" stroke="rgb(0,0,0)" stroke-width="40" stroke-linejoin="round" d="M 9502,15345 L 8931,15345"/>
          </g>
         </g>
         <g class="com.sun.star.drawing.LineShape">
          <g id="id34">
           <rect class="BoundingBox" stroke="none" fill="none" x="8911" y="16225" width="612" height="41"/>
           <path fill="none" stroke="rgb(0,0,0)" stroke-width="40" stroke-linejoin="round" d="M 9502,16245 L 8931,16245"/>
          </g>
         </g>
        </g>
       </g>
       <g class="com.sun.star.drawing.EllipseShape">
        <g id="id35">
         <rect class="BoundingBox" stroke="none" fill="none" x="9460" y="15320" width="214" height="952"/>
         <path fill="none" stroke="rgb(0,0,0)" stroke-width="40" stroke-linejoin="round" d="M 9653,16250 C 9605,16202 9571,16151 9541,16084 9499,15991 9480,15900 9480,15794 9480,15687 9499,15596 9541,15503 9570,15437 9603,15388 9650,15340"/>
        </g>
       </g>
      </g>
      <g class="com.sun.star.drawing.LineShape">
       <g id="id36">
        <rect class="BoundingBox" stroke="none" fill="none" x="3589" y="15866" width="919" height="354"/>
        <path fill="none" stroke="rgb(0,0,0)" stroke-width="35" stroke-linejoin="round" d="M 4489,16042 L 4094,16042"/>
        <path fill="rgb(0,0,0)" stroke="none" d="M 3589,16042 L 4117,16218 4117,15866 3589,16042 Z"/>
       </g>
      </g>
      <g class="com.sun.star.drawing.LineShape">
       <g id="id37">
        <rect class="BoundingBox" stroke="none" fill="none" x="11331" y="15866" width="919" height="354"/>
        <path fill="none" stroke="rgb(0,0,0)" stroke-width="35" stroke-linejoin="round" d="M 12231,16042 L 11836,16042"/>
        <path fill="rgb(0,0,0)" stroke="none" d="M 11331,16042 L 11859,16218 11859,15866 11331,16042 Z"/>
       </g>
      </g>
      <g class="com.sun.star.drawing.LineShape">
       <g id="id38">
        <rect class="BoundingBox" stroke="none" fill="none" x="7979" y="15775" width="341" height="41"/>
        <path fill="none" stroke="rgb(0,0,0)" stroke-width="40" stroke-linejoin="round" d="M 8299,15795 L 7999,15795"/>
       </g>
      </g>
      <g class="com.sun.star.drawing.LineShape">
       <g id="id39">
        <rect class="BoundingBox" stroke="none" fill="none" x="7983" y="15756" width="41" height="314"/>
        <path fill="none" stroke="rgb(0,0,0)" stroke-width="40" stroke-linejoin="round" d="M 8003,16049 L 8003,15776"/>
       </g>
      </g>
      <g class="OLE2">
       <g id="id40">
        <rect class="BoundingBox" stroke="none" fill="none" x="10451" y="13346" width="992" height="481"/>
        <defs>
         <clipPath id="clip_path_2" clipPathUnits="userSpaceOnUse">
          <path d="M 10451,13335 L 11430,13335 11430,13838 10451,13838 10451,13335 Z"/>
         </clipPath>
        </defs>
        <g clip-path="url(#clip_path_2)">
         <text class="TextShape"><tspan class="TextParagraph" font-family="Liberation Serif, serif" font-size="422px" font-style="italic" font-weight="400"><tspan class="TextPosition" x="10583" y="13716"><tspan fill="rgb(0,0,0)" stroke="none">x</tspan></tspan></tspan></text>
         <text class="TextShape"><tspan class="TextParagraph" font-family="OpenSymbol" font-size="422px" font-weight="400"><tspan class="TextPosition" x="10821" y="13716"><tspan fill="rgb(0,0,0)" stroke="none">[</tspan></tspan></tspan></text>
         <text class="TextShape"><tspan class="TextParagraph" font-family="Liberation Serif, serif" font-size="422px" font-style="italic" font-weight="400"><tspan class="TextPosition" x="10980" y="13716"><tspan fill="rgb(0,0,0)" stroke="none">n</tspan></tspan></tspan></text>
         <text class="TextShape"><tspan class="TextParagraph" font-family="OpenSymbol" font-size="422px" font-weight="400"><tspan class="TextPosition" x="11218" y="13716"><tspan fill="rgb(0,0,0)" stroke="none">]</tspan></tspan></tspan></text>
        </g>
       </g>
      </g>
      <g class="OLE2">
       <g id="id41">
        <rect class="BoundingBox" stroke="none" fill="none" x="12476" y="17140" width="429" height="467"/>
        <defs>
         <clipPath id="clip_path_3" clipPathUnits="userSpaceOnUse">
          <path d="M 12488,17145 L 12912,17145 12912,17595 12488,17595 12488,17145 Z"/>
         </clipPath>
        </defs>
        <g clip-path="url(#clip_path_3)">
         <text class="TextShape"><tspan class="TextParagraph" font-family="Liberation Serif, serif" font-size="422px" font-weight="400"><tspan class="TextPosition" x="12582" y="17510"><tspan fill="rgb(0,0,0)" stroke="none">0</tspan></tspan></tspan></text>
        </g>
       </g>
      </g>
      <g class="OLE2">
       <g id="id42">
        <rect class="BoundingBox" stroke="none" fill="none" x="10728" y="17140" width="412" height="467"/>
        <defs>
         <clipPath id="clip_path_4" clipPathUnits="userSpaceOnUse">
          <path d="M 10716,17145 L 11139,17145 11139,17595 10716,17595 10716,17145 Z"/>
         </clipPath>
        </defs>
        <g clip-path="url(#clip_path_4)">
         <text class="TextShape"><tspan class="TextParagraph" font-family="Liberation Serif, serif" font-size="422px" font-weight="400"><tspan class="TextPosition" x="10834" y="17510"><tspan fill="rgb(0,0,0)" stroke="none">1</tspan></tspan></tspan></text>
        </g>
       </g>
      </g>
      <g class="OLE2">
       <g id="id43">
        <rect class="BoundingBox" stroke="none" fill="none" x="6523" y="17140" width="429" height="467"/>
        <defs>
         <clipPath id="clip_path_5" clipPathUnits="userSpaceOnUse">
          <path d="M 6535,17145 L 6959,17145 6959,17595 6535,17595 6535,17145 Z"/>
         </clipPath>
        </defs>
        <g clip-path="url(#clip_path_5)">
         <text class="TextShape"><tspan class="TextParagraph" font-family="Liberation Serif, serif" font-size="422px" font-weight="400"><tspan class="TextPosition" x="6633" y="17510"><tspan fill="rgb(0,0,0)" stroke="none">2</tspan></tspan></tspan></text>
        </g>
       </g>
      </g>
      <g class="OLE2">
       <g id="id44">
        <rect class="BoundingBox" stroke="none" fill="none" x="4728" y="17140" width="429" height="467"/>
        <defs>
         <clipPath id="clip_path_6" clipPathUnits="userSpaceOnUse">
          <path d="M 4736,17145 L 5159,17145 5159,17595 4736,17595 4736,17145 Z"/>
         </clipPath>
        </defs>
        <g clip-path="url(#clip_path_6)">
         <text class="TextShape"><tspan class="TextParagraph" font-family="Liberation Serif, serif" font-size="422px" font-weight="400"><tspan class="TextPosition" x="4835" y="17510"><tspan fill="rgb(0,0,0)" stroke="none">3</tspan></tspan></tspan></text>
        </g>
       </g>
      </g>
      <g class="OLE2">
       <g id="id45">
        <rect class="BoundingBox" stroke="none" fill="none" x="2924" y="17140" width="446" height="467"/>
        <defs>
         <clipPath id="clip_path_7" clipPathUnits="userSpaceOnUse">
          <path d="M 2937,17145 L 3360,17145 3360,17595 2937,17595 2937,17145 Z"/>
         </clipPath>
        </defs>
        <g clip-path="url(#clip_path_7)">
         <text class="TextShape"><tspan class="TextParagraph" font-family="Liberation Serif, serif" font-size="422px" font-weight="400"><tspan class="TextPosition" x="3030" y="17510"><tspan fill="rgb(0,0,0)" stroke="none">4</tspan></tspan></tspan></text>
        </g>
       </g>
      </g>
     </g>
    </g>
   </g>
  </g>
 </g>
</svg>