<?xml version="1.0" encoding="UTF-8"?>
<!DOCTYPE svg PUBLIC "-//W3C//DTD SVG 1.1//EN" "http://www.w3.org/Graphics/SVG/1.1/DTD/svg11.dtd">
<svg version="1.2" width="146.73mm" height="40.7mm" viewBox="2455 10572 14673 4070" preserveAspectRatio="xMidYMid" fill-rule="evenodd" stroke-width="28.222" stroke-linejoin="round" xmlns="http://www.w3.org/2000/svg" xmlns:ooo="http://xml.openoffice.org/svg/export" xmlns:xlink="http://www.w3.org/1999/xlink" xmlns:presentation="http://sun.com/xmlns/staroffice/presentation" xmlns:smil="http://www.w3.org/2001/SMIL20/" xmlns:anim="urn:oasis:names:tc:opendocument:xmlns:animation:1.0" xml:space="preserve">
 <defs class="ClipPathGroup">
  <clipPath id="presentation_clip_path" clipPathUnits="userSpaceOnUse">
   <rect x="2455" y="10572" width="14673" height="4070"/>
  </clipPath>
  <clipPath id="presentation_clip_path_shrink" clipPathUnits="userSpaceOnUse">
   <rect x="2469" y="10576" width="14644" height="4062"/>
  </clipPath>
 </defs>
 <defs>
  <font id="EmbeddedFont_1" horiz-adv-x="2048">
   <font-face font-family="Liberation Serif embedded" units-per-em="2048" font-weight="normal" font-style="normal" ascent="1799" descent="423"/>
   <missing-glyph horiz-adv-x="2048" d="M 0,0 L 2047,0 2047,2047 0,2047 0,0 Z"/>
   <glyph unicode="3" horiz-adv-x="875" d="M 944,365 C 944,304 933,250 912,203 891,155 860,115 820,82 779,49 730,23 671,6 612,-11 544,-20 469,-20 403,-20 339,-16 277,-8 215,0 159,10 109,23 L 98,305 164,305 209,117 C 221,110 237,104 256,97 275,90 296,85 319,80 341,75 364,71 388,68 411,65 433,63 453,63 515,63 566,71 606,86 645,101 677,123 700,151 723,178 738,211 747,250 756,288 760,330 760,375 760,427 753,470 738,505 723,539 703,567 678,588 652,609 622,624 588,634 553,643 516,649 477,651 L 334,659 334,741 477,750 C 552,754 608,777 644,820 680,863 698,927 698,1014 698,1057 694,1095 685,1128 676,1160 661,1187 642,1208 623,1229 598,1245 567,1256 536,1267 498,1272 453,1272 433,1272 413,1271 393,1268 372,1265 353,1261 334,1256 315,1251 298,1245 282,1239 266,1232 252,1226 240,1219 L 205,1055 139,1055 139,1313 C 162,1319 186,1325 209,1330 232,1335 257,1340 282,1344 307,1347 334,1350 362,1353 390,1355 420,1356 453,1356 594,1356 701,1329 774,1275 847,1221 883,1138 883,1026 883,984 877,945 866,909 855,872 837,840 813,812 789,784 759,761 722,742 685,723 641,709 590,702 711,688 801,653 858,598 915,542 944,464 944,365 Z"/>
   <glyph unicode="2" horiz-adv-x="848" d="M 911,0 L 90,0 90,147 C 157,210 219,266 276,316 332,365 383,412 428,455 473,498 512,539 546,578 579,617 607,658 630,701 652,744 669,790 680,839 691,888 696,944 696,1006 696,1093 676,1159 637,1204 598,1249 533,1272 444,1272 424,1272 404,1271 385,1268 365,1265 346,1261 328,1256 310,1251 293,1245 278,1239 262,1232 248,1226 236,1219 L 201,1055 135,1055 135,1313 C 186,1325 236,1335 285,1344 334,1352 387,1356 444,1356 591,1356 701,1326 775,1265 848,1204 885,1117 885,1006 885,951 878,901 864,854 849,807 829,763 802,720 775,677 743,634 704,593 665,551 621,508 572,463 523,418 469,371 410,321 351,270 288,215 221,154 L 911,154 911,0 Z"/>
   <glyph unicode="1" horiz-adv-x="742" d="M 627,80 L 901,53 901,0 180,0 180,53 455,80 455,1174 184,1077 184,1130 575,1352 627,1352 627,80 Z"/>
   <glyph unicode="0" horiz-adv-x="901" d="M 946,676 C 946,564 937,465 920,378 902,291 875,219 839,160 803,101 757,56 702,26 647,-5 581,-20 506,-20 365,-20 258,39 186,158 114,277 78,449 78,676 78,898 114,1068 186,1186 258,1303 367,1362 514,1362 655,1362 763,1304 836,1188 909,1071 946,901 946,676 Z M 762,676 C 762,772 758,858 750,933 741,1008 727,1072 708,1124 688,1175 662,1215 629,1242 596,1269 555,1282 506,1282 457,1282 416,1269 385,1242 353,1215 328,1175 310,1124 292,1072 280,1008 273,933 266,858 262,772 262,676 262,580 266,494 273,418 280,341 292,277 310,224 328,171 353,130 385,102 416,73 457,59 506,59 555,59 596,73 629,102 662,130 688,171 708,224 727,277 741,341 750,418 758,494 762,580 762,676 Z"/>
  </font>
 </defs>
 <defs>
  <font id="EmbeddedFont_2" horiz-adv-x="2048">
   <font-face font-family="Liberation Serif embedded" units-per-em="2048" font-weight="normal" font-style="italic" ascent="1799" descent="423"/>
   <missing-glyph horiz-adv-x="2048" d="M 0,0 L 2047,0 2047,2047 0,2047 0,0 Z"/>
   <glyph unicode="y" horiz-adv-x="1112" d="M 52,940 L 308,940 453,208 688,614 C 710,653 726,688 737,721 747,753 752,782 752,807 752,832 745,851 731,866 717,881 702,890 686,895 L 694,940 884,940 C 890,935 896,926 902,915 907,904 910,891 910,877 910,856 904,828 893,793 882,758 860,713 827,657 L 431,-9 C 392,-76 355,-136 320,-189 285,-242 250,-288 215,-325 180,-362 143,-391 105,-411 66,-431 24,-441 -22,-441 -39,-441 -54,-441 -68,-441 -80,-441 -92,-440 -104,-438 -114,-437 -125,-435 -136,-433 -147,-430 -158,-428 -171,-424 L -134,-221 -89,-221 -73,-317 C -56,-332 -29,-340 9,-340 38,-340 66,-332 93,-315 120,-298 145,-277 170,-251 194,-224 217,-195 238,-163 259,-131 277,-100 294,-70 L 339,12 156,870 44,895 52,940 Z"/>
   <glyph unicode="x" horiz-adv-x="927" d="M 248,236 C 227,215 209,197 196,182 182,167 171,153 163,142 155,130 150,119 147,110 144,101 142,92 142,84 142,73 146,65 154,59 161,53 171,48 184,45 L 176,0 -9,0 C -13,3 -17,9 -20,17 -23,24 -25,33 -25,43 -25,52 -22,63 -18,74 -12,85 -5,97 6,111 17,125 31,141 48,159 65,177 87,198 112,221 L 385,475 213,870 106,895 114,940 362,940 507,582 631,700 C 674,741 704,773 721,796 738,819 747,839 747,856 747,861 745,866 742,870 738,874 733,878 727,881 721,884 715,886 708,889 701,891 694,893 688,895 L 696,940 873,940 C 879,935 884,930 888,923 892,916 894,907 894,897 894,858 848,794 756,707 L 542,506 734,66 850,45 842,0 586,0 419,400 248,236 Z"/>
   <glyph unicode="n" horiz-adv-x="901" d="M 755,748 C 755,778 747,802 731,821 715,840 690,849 655,849 627,849 598,843 569,830 540,817 511,800 484,779 457,758 431,735 408,709 385,682 365,656 349,630 L 239,0 73,0 226,871 108,896 116,941 394,941 367,749 C 392,782 419,811 447,838 474,865 503,887 533,906 562,925 593,939 624,950 655,960 686,965 718,965 749,965 777,961 802,953 827,945 848,932 866,915 883,898 897,876 907,849 916,822 921,791 921,754 921,746 920,735 919,722 917,708 915,693 912,677 909,661 907,645 904,628 901,611 899,595 896,580 L 808,69 939,45 931,0 630,0 732,582 C 735,597 737,612 740,628 743,644 745,660 748,675 750,690 752,704 753,717 754,730 755,740 755,748 Z"/>
  </font>
 </defs>
 <defs>
  <font id="EmbeddedFont_3" horiz-adv-x="2048">
   <font-face font-family="OpenSymbol embedded" units-per-em="2048" font-weight="normal" font-style="normal" ascent="1402" descent="423"/>
   <missing-glyph horiz-adv-x="2048" d="M 0,0 L 2047,0 2047,2047 0,2047 0,0 Z"/>
   <glyph unicode="]" horiz-adv-x="398" d="M 428,-403 L 74,-403 74,-330 330,-330 330,1553 74,1553 74,1622 428,1622 428,-403 Z"/>
   <glyph unicode="[" horiz-adv-x="372" d="M 150,-403 L 150,1622 504,1622 504,1552 248,1552 248,-332 504,-332 504,-403 150,-403 Z"/>
  </font>
 </defs>
 <defs class="TextShapeIndex">
  <g ooo:slide="id1" ooo:id-list="id3 id4 id5 id6 id7 id8 id9 id10 id11 id12 id13 id14 id15 id16 id17 id18 id19 id20 id21 id22 id23 id24 id25 id26 id27 id28 id29 id30 id31 id32 id33 id34 id35 id36 id37 id38 id39 id40 id41 id42 id43 id44 id45 id46 id47 id48 id49 id50 id51"/>
 </defs>
 <defs class="EmbeddedBulletChars">
  <g id="bullet-char-template(57356)" transform="scale(0.00048828125,-0.00048828125)">
   <path d="M 580,1141 L 1163,571 580,0 -4,571 580,1141 Z"/>
  </g>
  <g id="bullet-char-template(57354)" transform="scale(0.00048828125,-0.00048828125)">
   <path d="M 8,1128 L 1137,1128 1137,0 8,0 8,1128 Z"/>
  </g>
  <g id="bullet-char-template(10146)" transform="scale(0.00048828125,-0.00048828125)">
   <path d="M 174,0 L 602,739 174,1481 1456,739 174,0 Z M 1358,739 L 309,1346 659,739 1358,739 Z"/>
  </g>
  <g id="bullet-char-template(10132)" transform="scale(0.00048828125,-0.00048828125)">
   <path d="M 2015,739 L 1276,0 717,0 1260,543 174,543 174,936 1260,936 717,1481 1274,1481 2015,739 Z"/>
  </g>
  <g id="bullet-char-template(10007)" transform="scale(0.00048828125,-0.00048828125)">
   <path d="M 0,-2 C -7,14 -16,27 -25,37 L 356,567 C 262,823 215,952 215,954 215,979 228,992 255,992 264,992 276,990 289,987 310,991 331,999 354,1012 L 381,999 492,748 772,1049 836,1024 860,1049 C 881,1039 901,1025 922,1006 886,937 835,863 770,784 769,783 710,716 594,584 L 774,223 C 774,196 753,168 711,139 L 727,119 C 717,90 699,76 672,76 641,76 570,178 457,381 L 164,-76 C 142,-110 111,-127 72,-127 30,-127 9,-110 8,-76 1,-67 -2,-52 -2,-32 -2,-23 -1,-13 0,-2 Z"/>
  </g>
  <g id="bullet-char-template(10004)" transform="scale(0.00048828125,-0.00048828125)">
   <path d="M 285,-33 C 182,-33 111,30 74,156 52,228 41,333 41,471 41,549 55,616 82,672 116,743 169,778 240,778 293,778 328,747 346,684 L 369,508 C 377,444 397,411 428,410 L 1163,1116 C 1174,1127 1196,1133 1229,1133 1271,1133 1292,1118 1292,1087 L 1292,965 C 1292,929 1282,901 1262,881 L 442,47 C 390,-6 338,-33 285,-33 Z"/>
  </g>
  <g id="bullet-char-template(9679)" transform="scale(0.00048828125,-0.00048828125)">
   <path d="M 813,0 C 632,0 489,54 383,161 276,268 223,411 223,592 223,773 276,916 383,1023 489,1130 632,1184 813,1184 992,1184 1136,1130 1245,1023 1353,916 1407,772 1407,592 1407,412 1353,268 1245,161 1136,54 992,0 813,0 Z"/>
  </g>
  <g id="bullet-char-template(8226)" transform="scale(0.00048828125,-0.00048828125)">
   <path d="M 346,457 C 273,457 209,483 155,535 101,586 74,649 74,723 74,796 101,859 155,911 209,963 273,989 346,989 419,989 480,963 531,910 582,859 608,796 608,723 608,648 583,586 532,535 482,483 420,457 346,457 Z"/>
  </g>
  <g id="bullet-char-template(8211)" transform="scale(0.00048828125,-0.00048828125)">
   <path d="M -4,459 L 1135,459 1135,606 -4,606 -4,459 Z"/>
  </g>
  <g id="bullet-char-template(61548)" transform="scale(0.00048828125,-0.00048828125)">
   <path d="M 173,740 C 173,903 231,1043 346,1159 462,1274 601,1332 765,1332 928,1332 1067,1274 1183,1159 1299,1043 1357,903 1357,740 1357,577 1299,437 1183,322 1067,206 928,148 765,148 601,148 462,206 346,322 231,437 173,577 173,740 Z"/>
  </g>
 </defs>
 <defs class="TextEmbeddedBitmaps"/>
 <g class="SlideGroup">
  <g>
   <g id="container-id1">
    <g id="id1" class="Slide" clip-path="url(#presentation_clip_path)">
     <g class="Page">
      <g class="OLE2">
       <g id="id3">
        <rect class="BoundingBox" stroke="none" fill="none" x="16101" y="12689" width="1027" height="481"/>
        <defs>
         <clipPath id="clip_path_1" clipPathUnits="userSpaceOnUse">
          <path d="M 16113,12700 L 17119,12700 17119,13176 16113,13176 16113,12700 Z"/>
         </clipPath>
        </defs>
        <g clip-path="url(#clip_path_1)">
         <text class="TextShape"><tspan class="TextParagraph" font-family="Liberation Serif, serif" font-size="422px" font-style="italic" font-weight="400"><tspan class="TextPosition" x="16260" y="13059"><tspan fill="rgb(0,0,0)" stroke="none">y</tspan></tspan></tspan></text>
         <text class="TextShape"><tspan class="TextParagraph" font-family="OpenSymbol" font-size="422px" font-weight="400"><tspan class="TextPosition" x="16498" y="13059"><tspan fill="rgb(0,0,0)" stroke="none">[</tspan></tspan></tspan></text>
         <text class="TextShape"><tspan class="TextParagraph" font-family="Liberation Serif, serif" font-size="422px" font-style="italic" font-weight="400"><tspan class="TextPosition" x="16657" y="13059"><tspan fill="rgb(0,0,0)" stroke="none">n</tspan></tspan></tspan></text>
         <text class="TextShape"><tspan class="TextParagraph" font-family="OpenSymbol" font-size="422px" font-weight="400"><tspan class="TextPosition" x="16921" y="13059"><tspan fill="rgb(0,0,0)" stroke="none">]</tspan></tspan></tspan></text>
        </g>
       </g>
      </g>
      <g class="Group">
       <g class="com.sun.star.drawing.CustomShape">
        <g id="id4">
         <rect class="BoundingBox" stroke="none" fill="none" x="9708" y="10571" width="836" height="1235"/>
         <path fill="none" stroke="rgb(0,0,0)" stroke-width="35" stroke-linejoin="round" d="M 10126,11787 L 9726,11787 9726,10589 10525,10589 10525,11787 10126,11787 Z"/>
        </g>
       </g>
       <g class="com.sun.star.drawing.CustomShape">
        <g id="id5">
         <rect class="BoundingBox" stroke="none" fill="none" x="9705" y="11281" width="242" height="341"/>
         <path fill="none" stroke="rgb(0,0,0)" stroke-width="40" stroke-linejoin="round" d="M 9926,11451 L 9726,11301 9726,11601 9926,11451 Z"/>
        </g>
       </g>
      </g>
      <g class="com.sun.star.drawing.LineShape">
       <g id="id6">
        <rect class="BoundingBox" stroke="none" fill="none" x="11961" y="13856" width="1099" height="37"/>
        <path fill="none" stroke="rgb(0,0,0)" stroke-width="35" stroke-linejoin="round" d="M 11979,13874 L 13041,13874"/>
       </g>
      </g>
      <g class="com.sun.star.drawing.LineShape">
       <g id="id7">
        <rect class="BoundingBox" stroke="none" fill="none" x="13005" y="13126" width="37" height="757"/>
        <path fill="none" stroke="rgb(0,0,0)" stroke-width="35" stroke-linejoin="round" d="M 13023,13864 L 13023,13144"/>
       </g>
      </g>
      <g class="Group">
       <g class="com.sun.star.drawing.CustomShape">
        <g id="id8">
         <rect class="BoundingBox" stroke="none" fill="none" x="7592" y="10571" width="837" height="1237"/>
         <path fill="none" stroke="rgb(0,0,0)" stroke-width="35" stroke-linejoin="round" d="M 8010,11789 L 7610,11789 7610,10589 8410,10589 8410,11789 8010,11789 Z"/>
        </g>
       </g>
       <g class="com.sun.star.drawing.CustomShape">
        <g id="id9">
         <rect class="BoundingBox" stroke="none" fill="none" x="7589" y="11282" width="242" height="342"/>
         <path fill="none" stroke="rgb(0,0,0)" stroke-width="40" stroke-linejoin="round" d="M 7810,11453 L 7610,11302 7610,11603 7810,11453 Z"/>
        </g>
       </g>
      </g>
      <g class="com.sun.star.drawing.LineShape">
       <g id="id10">
        <rect class="BoundingBox" stroke="none" fill="none" x="15090" y="12757" width="1119" height="354"/>
        <path fill="none" stroke="rgb(0,0,0)" stroke-width="35" stroke-linejoin="round" d="M 15108,12933 L 15703,12933"/>
        <path fill="rgb(0,0,0)" stroke="none" d="M 16208,12933 L 15680,12757 15680,13109 16208,12933 Z"/>
       </g>
      </g>
      <g class="Group">
       <g class="com.sun.star.drawing.CustomShape">
        <g id="id11">
         <rect class="BoundingBox" stroke="none" fill="none" x="5478" y="10571" width="837" height="1237"/>
         <path fill="none" stroke="rgb(0,0,0)" stroke-width="35" stroke-linejoin="round" d="M 5896,11789 L 5496,11789 5496,10589 6296,10589 6296,11789 5896,11789 Z"/>
        </g>
       </g>
       <g class="com.sun.star.drawing.CustomShape">
        <g id="id12">
         <rect class="BoundingBox" stroke="none" fill="none" x="5474" y="11282" width="243" height="342"/>
         <path fill="none" stroke="rgb(0,0,0)" stroke-width="40" stroke-linejoin="round" d="M 5696,11453 L 5496,11302 5496,11603 5696,11453 Z"/>
        </g>
       </g>
      </g>
      <g class="com.sun.star.drawing.LineShape">
       <g id="id13">
        <rect class="BoundingBox" stroke="none" fill="none" x="6357" y="10712" width="1219" height="354"/>
        <path fill="none" stroke="rgb(0,0,0)" stroke-width="35" stroke-linejoin="round" d="M 6375,10888 L 7070,10888"/>
        <path fill="rgb(0,0,0)" stroke="none" d="M 7575,10888 L 7047,10712 7047,11064 7575,10888 Z"/>
       </g>
      </g>
      <g class="Group">
       <g class="com.sun.star.drawing.CustomShape">
        <g id="id14">
         <rect class="BoundingBox" stroke="none" fill="none" x="3363" y="10571" width="837" height="1237"/>
         <path fill="none" stroke="rgb(0,0,0)" stroke-width="35" stroke-linejoin="round" d="M 3781,11789 L 3381,11789 3381,10589 4181,10589 4181,11789 3781,11789 Z"/>
        </g>
       </g>
       <g class="com.sun.star.drawing.CustomShape">
        <g id="id15">
         <rect class="BoundingBox" stroke="none" fill="none" x="3359" y="11282" width="243" height="342"/>
         <path fill="none" stroke="rgb(0,0,0)" stroke-width="40" stroke-linejoin="round" d="M 3581,11453 L 3381,11302 3381,11603 3581,11453 Z"/>
        </g>
       </g>
      </g>
      <g class="com.sun.star.drawing.LineShape">
       <g id="id16">
        <rect class="BoundingBox" stroke="none" fill="none" x="4227" y="10712" width="1219" height="354"/>
        <path fill="none" stroke="rgb(0,0,0)" stroke-width="35" stroke-linejoin="round" d="M 4245,10888 L 4940,10888"/>
        <path fill="rgb(0,0,0)" stroke="none" d="M 5445,10888 L 4917,10712 4917,11064 5445,10888 Z"/>
       </g>
      </g>
      <g class="com.sun.star.drawing.LineShape">
       <g id="id17">
        <rect class="BoundingBox" stroke="none" fill="none" x="2454" y="10712" width="865" height="353"/>
        <path fill="none" stroke="rgb(0,0,0)" stroke-width="35" stroke-linejoin="round" d="M 2472,10888 L 2813,10888"/>
        <path fill="rgb(0,0,0)" stroke="none" d="M 3318,10888 L 2790,10712 2790,11064 3318,10888 Z"/>
       </g>
      </g>
      <g class="com.sun.star.drawing.LineShape">
       <g id="id18">
        <rect class="BoundingBox" stroke="none" fill="none" x="2464" y="10875" width="37" height="3768"/>
        <path fill="none" stroke="rgb(0,0,0)" stroke-width="35" stroke-linejoin="round" d="M 2482,10893 L 2482,14624"/>
       </g>
      </g>
      <g class="Group">
       <g class="Group">
        <g class="com.sun.star.drawing.EllipseShape">
         <g id="id19">
          <rect class="BoundingBox" stroke="none" fill="none" x="7668" y="12483" width="214" height="952"/>
          <path fill="none" stroke="rgb(0,0,0)" stroke-width="40" stroke-linejoin="round" d="M 7691,12503 C 7738,12551 7771,12600 7800,12666 7842,12759 7861,12850 7861,12957 7861,13063 7842,13154 7800,13247 7770,13314 7736,13365 7688,13413"/>
         </g>
        </g>
        <g class="Group">
         <g class="com.sun.star.drawing.EllipseShape">
          <g id="id20">
           <rect class="BoundingBox" stroke="none" fill="none" x="8238" y="12488" width="625" height="941"/>
           <path fill="none" stroke="rgb(0,0,0)" stroke-width="40" stroke-linejoin="round" d="M 8258,12508 C 8259,12508 8259,12508 8260,12508 8367,12508 8458,12527 8551,12568 8644,12610 8710,12661 8764,12733 8818,12805 8842,12875 8842,12958 8842,13041 8818,13111 8764,13183 8710,13255 8644,13306 8551,13348 8458,13389 8367,13408 8260,13408 8259,13408 8259,13408 8258,13408"/>
          </g>
         </g>
         <g class="com.sun.star.drawing.LineShape">
          <g id="id21">
           <rect class="BoundingBox" stroke="none" fill="none" x="7668" y="12488" width="612" height="41"/>
           <path fill="none" stroke="rgb(0,0,0)" stroke-width="40" stroke-linejoin="round" d="M 7688,12508 L 8259,12508"/>
          </g>
         </g>
         <g class="com.sun.star.drawing.LineShape">
          <g id="id22">
           <rect class="BoundingBox" stroke="none" fill="none" x="7668" y="13388" width="612" height="41"/>
           <path fill="none" stroke="rgb(0,0,0)" stroke-width="40" stroke-linejoin="round" d="M 7688,13408 L 8259,13408"/>
          </g>
         </g>
        </g>
       </g>
       <g class="com.sun.star.drawing.EllipseShape">
        <g id="id23">
         <rect class="BoundingBox" stroke="none" fill="none" x="7517" y="12483" width="214" height="952"/>
         <path fill="none" stroke="rgb(0,0,0)" stroke-width="40" stroke-linejoin="round" d="M 7540,12503 C 7587,12551 7620,12600 7649,12666 7691,12759 7710,12850 7710,12957 7710,13063 7691,13154 7649,13247 7619,13314 7585,13365 7537,13413"/>
        </g>
       </g>
      </g>
      <g class="com.sun.star.drawing.LineShape">
       <g id="id24">
        <rect class="BoundingBox" stroke="none" fill="none" x="6749" y="12585" width="889" height="353"/>
        <path fill="none" stroke="rgb(0,0,0)" stroke-width="35" stroke-linejoin="round" d="M 6767,12761 L 7132,12761"/>
        <path fill="rgb(0,0,0)" stroke="none" d="M 7637,12761 L 7109,12585 7109,12937 7637,12761 Z"/>
       </g>
      </g>
      <g class="com.sun.star.drawing.LineShape">
       <g id="id25">
        <rect class="BoundingBox" stroke="none" fill="none" x="8507" y="10712" width="1219" height="354"/>
        <path fill="none" stroke="rgb(0,0,0)" stroke-width="35" stroke-linejoin="round" d="M 8525,10888 L 9220,10888"/>
        <path fill="rgb(0,0,0)" stroke="none" d="M 9725,10888 L 9197,10712 9197,11064 9725,10888 Z"/>
       </g>
      </g>
      <g class="OLE2">
       <g id="id26">
        <rect class="BoundingBox" stroke="none" fill="none" x="11006" y="13628" width="992" height="481"/>
        <defs>
         <clipPath id="clip_path_2" clipPathUnits="userSpaceOnUse">
          <path d="M 11007,13626 L 11986,13626 11986,14102 11007,14102 11007,13626 Z"/>
         </clipPath>
        </defs>
        <g clip-path="url(#clip_path_2)">
         <text class="TextShape"><tspan class="TextParagraph" font-family="Liberation Serif, serif" font-size="422px" font-style="italic" font-weight="400"><tspan class="TextPosition" x="11138" y="13998"><tspan fill="rgb(0,0,0)" stroke="none">x</tspan></tspan></tspan></text>
         <text class="TextShape"><tspan class="TextParagraph" font-family="OpenSymbol" font-size="422px" font-weight="400"><tspan class="TextPosition" x="11376" y="13998"><tspan fill="rgb(0,0,0)" stroke="none">[</tspan></tspan></tspan></text>
         <text class="TextShape"><tspan class="TextParagraph" font-family="Liberation Serif, serif" font-size="422px" font-style="italic" font-weight="400"><tspan class="TextPosition" x="11535" y="13998"><tspan fill="rgb(0,0,0)" stroke="none">n</tspan></tspan></tspan></text>
         <text class="TextShape"><tspan class="TextParagraph" font-family="OpenSymbol" font-size="422px" font-weight="400"><tspan class="TextPosition" x="11773" y="13998"><tspan fill="rgb(0,0,0)" stroke="none">]</tspan></tspan></tspan></text>
        </g>
       </g>
      </g>
      <g class="OLE2">
       <g id="id27">
        <rect class="BoundingBox" stroke="none" fill="none" x="3567" y="11939" width="429" height="467"/>
        <defs>
         <clipPath id="clip_path_3" clipPathUnits="userSpaceOnUse">
          <path d="M 3572,11933 L 3995,11933 3995,12409 3572,12409 3572,11933 Z"/>
         </clipPath>
        </defs>
        <g clip-path="url(#clip_path_3)">
         <text class="TextShape"><tspan class="TextParagraph" font-family="Liberation Serif, serif" font-size="422px" font-weight="400"><tspan class="TextPosition" x="3673" y="12309"><tspan fill="rgb(0,0,0)" stroke="none">0</tspan></tspan></tspan></text>
        </g>
       </g>
      </g>
      <g class="OLE2">
       <g id="id28">
        <rect class="BoundingBox" stroke="none" fill="none" x="5691" y="11939" width="412" height="467"/>
        <defs>
         <clipPath id="clip_path_4" clipPathUnits="userSpaceOnUse">
          <path d="M 5689,11933 L 6112,11933 6112,12409 5689,12409 5689,11933 Z"/>
         </clipPath>
        </defs>
        <g clip-path="url(#clip_path_4)">
         <text class="TextShape"><tspan class="TextParagraph" font-family="Liberation Serif, serif" font-size="422px" font-weight="400"><tspan class="TextPosition" x="5797" y="12309"><tspan fill="rgb(0,0,0)" stroke="none">1</tspan></tspan></tspan></text>
        </g>
       </g>
      </g>
      <g class="OLE2">
       <g id="id29">
        <rect class="BoundingBox" stroke="none" fill="none" x="7796" y="11939" width="429" height="467"/>
        <defs>
         <clipPath id="clip_path_5" clipPathUnits="userSpaceOnUse">
          <path d="M 7805,11933 L 8228,11933 8228,12409 7805,12409 7805,11933 Z"/>
         </clipPath>
        </defs>
        <g clip-path="url(#clip_path_5)">
         <text class="TextShape"><tspan class="TextParagraph" font-family="Liberation Serif, serif" font-size="422px" font-weight="400"><tspan class="TextPosition" x="7905" y="12309"><tspan fill="rgb(0,0,0)" stroke="none">2</tspan></tspan></tspan></text>
        </g>
       </g>
      </g>
      <g class="OLE2">
       <g id="id30">
        <rect class="BoundingBox" stroke="none" fill="none" x="9911" y="11939" width="429" height="467"/>
        <defs>
         <clipPath id="clip_path_6" clipPathUnits="userSpaceOnUse">
          <path d="M 9922,11933 L 10345,11933 10345,12409 9922,12409 9922,11933 Z"/>
         </clipPath>
        </defs>
        <g clip-path="url(#clip_path_6)">
         <text class="TextShape"><tspan class="TextParagraph" font-family="Liberation Serif, serif" font-size="422px" font-weight="400"><tspan class="TextPosition" x="10018" y="12309"><tspan fill="rgb(0,0,0)" stroke="none">3</tspan></tspan></tspan></text>
        </g>
       </g>
      </g>
      <g class="com.sun.star.drawing.LineShape">
       <g id="id31">
        <rect class="BoundingBox" stroke="none" fill="none" x="4449" y="10765" width="253" height="2466"/>
        <path fill="none" stroke="rgb(0,0,0)" stroke-width="35" stroke-linejoin="round" d="M 4575,11000 L 4575,13212"/>
        <path fill="rgb(0,0,0)" stroke="none" d="M 4552,11014 L 4529,11008 4506,10996 4486,10980 4470,10960 4458,10937 4452,10914 4449,10891 4452,10868 4458,10844 4470,10822 4486,10802 4506,10786 4529,10775 4552,10767 4576,10765 4598,10767 4622,10775 4644,10786 4664,10802 4680,10822 4692,10844 4698,10868 4701,10891 4698,10914 4692,10937 4680,10960 4664,10980 4644,10996 4622,11008 4598,11014 4576,11017 4552,11014 Z"/>
       </g>
      </g>
      <g class="com.sun.star.drawing.LineShape">
       <g id="id32">
        <rect class="BoundingBox" stroke="none" fill="none" x="6637" y="10755" width="253" height="2032"/>
        <path fill="none" stroke="rgb(0,0,0)" stroke-width="35" stroke-linejoin="round" d="M 6763,10990 L 6763,12768"/>
        <path fill="rgb(0,0,0)" stroke="none" d="M 6740,11004 L 6717,10998 6694,10986 6674,10970 6658,10950 6646,10927 6640,10904 6637,10881 6640,10858 6646,10834 6658,10812 6674,10792 6694,10776 6717,10765 6740,10757 6764,10755 6786,10757 6810,10765 6832,10776 6852,10792 6868,10812 6880,10834 6886,10858 6889,10881 6886,10904 6880,10927 6868,10950 6852,10970 6832,10986 6810,10998 6786,11004 6764,11007 6740,11004 Z"/>
       </g>
      </g>
      <g class="com.sun.star.drawing.LineShape">
       <g id="id33">
        <rect class="BoundingBox" stroke="none" fill="none" x="4556" y="13025" width="3082" height="353"/>
        <path fill="none" stroke="rgb(0,0,0)" stroke-width="35" stroke-linejoin="round" d="M 4574,13201 L 7132,13201"/>
        <path fill="rgb(0,0,0)" stroke="none" d="M 7637,13201 L 7109,13025 7109,13377 7637,13201 Z"/>
       </g>
      </g>
      <g class="Group">
       <g class="Group">
        <g class="com.sun.star.drawing.EllipseShape">
         <g id="id34">
          <rect class="BoundingBox" stroke="none" fill="none" x="11712" y="12228" width="214" height="952"/>
          <path fill="none" stroke="rgb(0,0,0)" stroke-width="40" stroke-linejoin="round" d="M 11735,12248 C 11782,12296 11815,12345 11844,12411 11886,12504 11905,12595 11905,12702 11905,12808 11886,12899 11844,12992 11814,13059 11780,13110 11732,13158"/>
         </g>
        </g>
        <g class="Group">
         <g class="com.sun.star.drawing.EllipseShape">
          <g id="id35">
           <rect class="BoundingBox" stroke="none" fill="none" x="12282" y="12233" width="625" height="941"/>
           <path fill="none" stroke="rgb(0,0,0)" stroke-width="40" stroke-linejoin="round" d="M 12302,12253 C 12303,12253 12303,12253 12304,12253 12411,12253 12502,12272 12595,12313 12688,12355 12754,12406 12808,12478 12862,12550 12886,12620 12886,12703 12886,12786 12862,12856 12808,12928 12754,13000 12688,13051 12595,13093 12502,13134 12411,13153 12304,13153 12303,13153 12303,13153 12302,13153"/>
          </g>
         </g>
         <g class="com.sun.star.drawing.LineShape">
          <g id="id36">
           <rect class="BoundingBox" stroke="none" fill="none" x="11712" y="12233" width="612" height="41"/>
           <path fill="none" stroke="rgb(0,0,0)" stroke-width="40" stroke-linejoin="round" d="M 11732,12253 L 12303,12253"/>
          </g>
         </g>
         <g class="com.sun.star.drawing.LineShape">
          <g id="id37">
           <rect class="BoundingBox" stroke="none" fill="none" x="11712" y="13133" width="612" height="41"/>
           <path fill="none" stroke="rgb(0,0,0)" stroke-width="40" stroke-linejoin="round" d="M 11732,13153 L 12303,13153"/>
          </g>
         </g>
        </g>
       </g>
       <g class="com.sun.star.drawing.EllipseShape">
        <g id="id38">
         <rect class="BoundingBox" stroke="none" fill="none" x="11561" y="12228" width="214" height="952"/>
         <path fill="none" stroke="rgb(0,0,0)" stroke-width="40" stroke-linejoin="round" d="M 11584,12248 C 11631,12296 11664,12345 11693,12411 11735,12504 11754,12595 11754,12702 11754,12808 11735,12899 11693,12992 11663,13059 11629,13110 11581,13158"/>
        </g>
       </g>
      </g>
      <g class="com.sun.star.drawing.LineShape">
       <g id="id39">
        <rect class="BoundingBox" stroke="none" fill="none" x="10793" y="12330" width="889" height="353"/>
        <path fill="none" stroke="rgb(0,0,0)" stroke-width="35" stroke-linejoin="round" d="M 10811,12506 L 11176,12506"/>
        <path fill="rgb(0,0,0)" stroke="none" d="M 11681,12506 L 11153,12330 11153,12682 11681,12506 Z"/>
       </g>
      </g>
      <g class="com.sun.star.drawing.LineShape">
       <g id="id40">
        <rect class="BoundingBox" stroke="none" fill="none" x="8894" y="12770" width="2788" height="353"/>
        <path fill="none" stroke="rgb(0,0,0)" stroke-width="35" stroke-linejoin="round" d="M 8912,12946 L 11176,12946"/>
        <path fill="rgb(0,0,0)" stroke="none" d="M 11681,12946 L 11153,12770 11153,13122 11681,12946 Z"/>
       </g>
      </g>
      <g class="com.sun.star.drawing.LineShape">
       <g id="id41">
        <rect class="BoundingBox" stroke="none" fill="none" x="10526" y="10868" width="278" height="41"/>
        <path fill="none" stroke="rgb(0,0,0)" stroke-width="40" stroke-linejoin="round" d="M 10546,10888 L 10783,10888"/>
       </g>
      </g>
      <g class="com.sun.star.drawing.LineShape">
       <g id="id42">
        <rect class="BoundingBox" stroke="none" fill="none" x="10782" y="10858" width="41" height="1676"/>
        <path fill="none" stroke="rgb(0,0,0)" stroke-width="40" stroke-linejoin="round" d="M 10802,10878 L 10802,12513"/>
       </g>
      </g>
      <g class="Group">
       <g class="Group">
        <g class="com.sun.star.drawing.EllipseShape">
         <g id="id43">
          <rect class="BoundingBox" stroke="none" fill="none" x="13847" y="12436" width="214" height="952"/>
          <path fill="none" stroke="rgb(0,0,0)" stroke-width="40" stroke-linejoin="round" d="M 13870,12456 C 13917,12504 13950,12553 13979,12619 14021,12712 14040,12803 14040,12910 14040,13016 14021,13107 13979,13200 13949,13267 13915,13318 13867,13366"/>
         </g>
        </g>
        <g class="Group">
         <g class="com.sun.star.drawing.EllipseShape">
          <g id="id44">
           <rect class="BoundingBox" stroke="none" fill="none" x="14417" y="12441" width="625" height="941"/>
           <path fill="none" stroke="rgb(0,0,0)" stroke-width="40" stroke-linejoin="round" d="M 14437,12461 C 14438,12461 14438,12461 14439,12461 14546,12461 14637,12480 14730,12521 14823,12563 14889,12614 14943,12686 14997,12758 15021,12828 15021,12911 15021,12994 14997,13064 14943,13136 14889,13208 14823,13259 14730,13301 14637,13342 14546,13361 14439,13361 14438,13361 14438,13361 14437,13361"/>
          </g>
         </g>
         <g class="com.sun.star.drawing.LineShape">
          <g id="id45">
           <rect class="BoundingBox" stroke="none" fill="none" x="13847" y="12441" width="612" height="41"/>
           <path fill="none" stroke="rgb(0,0,0)" stroke-width="40" stroke-linejoin="round" d="M 13867,12461 L 14438,12461"/>
          </g>
         </g>
         <g class="com.sun.star.drawing.LineShape">
          <g id="id46">
           <rect class="BoundingBox" stroke="none" fill="none" x="13847" y="13341" width="612" height="41"/>
           <path fill="none" stroke="rgb(0,0,0)" stroke-width="40" stroke-linejoin="round" d="M 13867,13361 L 14438,13361"/>
          </g>
         </g>
        </g>
       </g>
       <g class="com.sun.star.drawing.EllipseShape">
        <g id="id47">
         <rect class="BoundingBox" stroke="none" fill="none" x="13696" y="12436" width="214" height="952"/>
         <path fill="none" stroke="rgb(0,0,0)" stroke-width="40" stroke-linejoin="round" d="M 13719,12456 C 13766,12504 13799,12553 13828,12619 13870,12712 13889,12803 13889,12910 13889,13016 13870,13107 13828,13200 13798,13267 13764,13318 13716,13366"/>
        </g>
       </g>
      </g>
      <g class="com.sun.star.drawing.LineShape">
       <g id="id48">
        <rect class="BoundingBox" stroke="none" fill="none" x="12928" y="12538" width="889" height="353"/>
        <path fill="none" stroke="rgb(0,0,0)" stroke-width="35" stroke-linejoin="round" d="M 12946,12714 L 13311,12714"/>
        <path fill="rgb(0,0,0)" stroke="none" d="M 13816,12714 L 13288,12538 13288,12890 13816,12714 Z"/>
       </g>
      </g>
      <g class="com.sun.star.drawing.LineShape">
       <g id="id49">
        <rect class="BoundingBox" stroke="none" fill="none" x="12995" y="12978" width="822" height="353"/>
        <path fill="none" stroke="rgb(0,0,0)" stroke-width="35" stroke-linejoin="round" d="M 13013,13154 L 13311,13154"/>
        <path fill="rgb(0,0,0)" stroke="none" d="M 13816,13154 L 13288,12978 13288,13330 13816,13154 Z"/>
       </g>
      </g>
      <g class="com.sun.star.drawing.LineShape">
       <g id="id50">
        <rect class="BoundingBox" stroke="none" fill="none" x="15228" y="12746" width="353" height="1873"/>
        <path fill="none" stroke="rgb(0,0,0)" stroke-width="35" stroke-linejoin="round" d="M 15404,14600 L 15404,13075"/>
        <path fill="rgb(0,0,0)" stroke="none" d="M 15372,13094 L 15340,13085 15308,13069 15279,13047 15257,13018 15241,12986 15232,12954 15228,12922 15232,12890 15241,12857 15257,12825 15279,12797 15308,12775 15340,12759 15372,12749 15405,12746 15436,12749 15469,12759 15500,12775 15529,12797 15551,12825 15567,12857 15576,12890 15580,12922 15576,12954 15567,12986 15551,13018 15529,13047 15500,13069 15469,13085 15436,13094 15405,13098 15372,13094 Z"/>
       </g>
      </g>
      <g class="com.sun.star.drawing.LineShape">
       <g id="id51">
        <rect class="BoundingBox" stroke="none" fill="none" x="2461" y="14602" width="12980" height="37"/>
        <path fill="none" stroke="rgb(0,0,0)" stroke-width="35" stroke-linejoin="round" d="M 2479,14620 L 15422,14620"/>
       </g>
      </g>
     </g>
    </g>
   </g>
  </g>
 </g>
</svg>