<?xml version="1.0" encoding="UTF-8" standalone="no"?>
<!DOCTYPE svg PUBLIC "-//W3C//DTD SVG 1.1//EN" "http://www.w3.org/Graphics/SVG/1.1/DTD/svg11.dtd">
<!-- Generated by Microsoft Visio, SVG Export poly_int1.svg Page-1 -->
<svg xmlns="http://www.w3.org/2000/svg" xmlns:xlink="http://www.w3.org/1999/xlink" xmlns:ev="http://www.w3.org/2001/xml-events"
		width="11.0306in" height="6.0917in" viewBox="0 0 794.201 438.602" xml:space="preserve" color-interpolation-filters="sRGB"
		class="st15">
	<style type="text/css">
	<![CDATA[
		.st1 {visibility:visible}
		.st2 {fill:#5b9bd5;fill-opacity:0.22;filter:url(#filter_2);stroke:#5b9bd5;stroke-opacity:0.22}
		.st3 {fill:#5b9bd5;stroke:#c7c8c8;stroke-width:0.25}
		.st4 {stroke:#ffffff;stroke-linecap:round;stroke-linejoin:round;stroke-width:3}
		.st5 {fill:#feffff;font-family:Calibri;font-size:1.16666em}
		.st6 {fill:none;stroke:none;stroke-width:0.25}
		.st7 {fill:#41719c;font-family:Calibri;font-size:1.16666em}
		.st8 {font-size:1em}
		.st9 {fill:#feffff;font-family:Calibri;font-size:0.833336em}
		.st10 {fill:none;filter:url(#filter_2);stroke:#5b9bd5;stroke-opacity:0.22}
		.st11 {fill:#5b9bd5;filter:url(#filter_2);font-family:Calibri;font-size:1.16666em;opacity:0.219608}
		.st12 {fill:none;stroke:#c7c8c8;stroke-width:0.25}
		.st13 {marker-end:url(#mrkr4-96);stroke:#5b9bd5;stroke-linecap:round;stroke-linejoin:round;stroke-width:1}
		.st14 {fill:#5b9bd5;fill-opacity:1;stroke:#5b9bd5;stroke-opacity:1;stroke-width:0.28409090909091}
		.st15 {fill:none;fill-rule:evenodd;font-size:12px;overflow:visible;stroke-linecap:square;stroke-miterlimit:3}
	]]>
	</style>

	<defs id="Markers">
		<g id="lend4">
			<path d="M 2 1 L 0 0 L 2 -1 L 2 1 " style="stroke:none"/>
		</g>
		<marker id="mrkr4-96" class="st14" refX="-7.04" orient="auto" markerUnits="strokeWidth" overflow="visible">
			<use xlink:href="#lend4" transform="scale(-3.52,-3.52) "/>
		</marker>
	</defs>
	<defs id="Filters">
		<filter id="filter_2">
			<feGaussianBlur stdDeviation="2"/>
		</filter>
	</defs>
	<g>
		<title>Page-1</title>
		<g id="group48-1" transform="translate(407.73,-20.9506)">
			<title>Sheet.48</title>
			<g id="shape49-2">
				<title>Circle</title>
				<g id="shadow49-3" transform="matrix(1,0,0,1,0.345598,1.97279)" class="st1">
					<path d="M0 406.71 A31.8898 31.8898 0 0 1 63.78 406.71 A31.8898 31.8898 0 1 1 0 406.71 Z" class="st2"/>
				</g>
				<path d="M0 406.71 A31.8898 31.8898 0 0 1 63.78 406.71 A31.8898 31.8898 0 1 1 0 406.71 Z" class="st3"/>
			</g>
			<g id="shape50-7" transform="translate(-300.801,119.126) rotate(-45)">
				<title>Sheet.50</title>
				<path d="M0 438.6 L63.79 438.6" class="st4"/>
			</g>
			<g id="shape51-10" transform="translate(-255.696,739.403) rotate(-135)">
				<title>Sheet.51</title>
				<path d="M0 438.6 L63.79 438.6" class="st4"/>
			</g>
		</g>
		<g id="group52-13" transform="translate(397.1,-117.187)">
			<title>Can.52</title>
			<desc>Tap RAM</desc>
			<g id="shape53-14">
				<title>Sheet.53</title>
				<g id="shadow53-15" transform="matrix(1,0,0,1,0.345598,1.97279)" class="st1">
					<path d="M0 430.1 A42.5197 8.50394 -180 1 0 85.04 430.1 L85.04 362.07 L0 362.07 L0 430.1 Z" class="st2"/>
				</g>
				<path d="M0 430.1 A42.5197 8.50394 -180 1 0 85.04 430.1 L85.04 362.07 L0 362.07 L0 430.1 Z" class="st3"/>
			</g>
			<g id="shape52-19">
				<g id="shadow52-20" transform="matrix(1,0,0,1,0.345598,1.97279)" class="st1">
					<ellipse cx="42.5197" cy="362.067" rx="42.5197" ry="8.50394" class="st2"/>
				</g>
				<ellipse cx="42.5197" cy="362.067" rx="42.5197" ry="8.50394" class="st3"/>
				<text x="16.66" y="400.28" class="st5">Tap RAM</text>			</g>
		</g>
		<g id="shape55-25" transform="translate(0.25,-45.5513)">
			<title>Rectangle.55</title>
			<desc>Incoming Sample</desc>
			<rect x="0" y="391.831" width="85.0394" height="46.7717" class="st6"/>
			<text x="28.51" y="411.02" class="st7">Incoming <tspan x="39.18" dy="1.2em" class="st8">Sample</tspan></text>		</g>
		<g id="group56-29" transform="translate(510.486,-20.9506)">
			<title>Sheet.56</title>
			<g id="shape57-30">
				<title>Circle</title>
				<g id="shadow57-31" transform="matrix(1,0,0,1,0.345598,1.97279)" class="st1">
					<path d="M0 406.71 A31.8898 31.8898 0 0 1 63.78 406.71 A31.8898 31.8898 0 1 1 0 406.71 Z" class="st2"/>
				</g>
				<path d="M0 406.71 A31.8898 31.8898 0 0 1 63.78 406.71 A31.8898 31.8898 0 1 1 0 406.71 Z" class="st3"/>
			</g>
			<g id="shape58-35" transform="translate(470.492,374.823) rotate(90)">
				<title>Sheet.58</title>
				<path d="M0 438.6 L63.78 438.6" class="st4"/>
			</g>
			<g id="shape59-38" transform="translate(0,-31.8898)">
				<title>Sheet.59</title>
				<path d="M0 438.6 L63.78 438.6" class="st4"/>
			</g>
		</g>
		<g id="shape61-41" transform="translate(164.01,254.423) rotate(-90) scale(-1,1)">
			<title>Trapezoid.61</title>
			<desc>Reset ACC</desc>
			<g id="shadow61-42" transform="matrix(1,0,0,1,1.97279,0.345598)" class="st1">
				<path d="M0 438.6 L64.25 438.6 L48.19 390.41 L16.06 390.41 L0 438.6 Z" class="st2"/>
			</g>
			<path d="M0 438.6 L64.25 438.6 L48.19 390.41 L16.06 390.41 L0 438.6 Z" class="st3"/>
			<text x="393.83" y="35.13" transform="rotate(-90) scale(-1,1)" class="st9">Reset ACC</text>		</g>
		<g id="shape67-47" transform="translate(708.911,-29.4545)">
			<title>Rectangle.67</title>
			<desc>Outgoing Sample</desc>
			<rect x="0" y="391.831" width="85.0394" height="46.7717" class="st6"/>
			<text x="4" y="411.02" class="st7">Outgoing <tspan x="4" dy="1.2em" class="st8">Sample</tspan></text>		</g>
		<g id="group69-51" transform="translate(696.216,343.242) rotate(90)">
			<title>Can.69</title>
			<desc>Sample RAM</desc>
			<g id="shape70-52">
				<title>Sheet.70</title>
				<g id="shadow70-53" transform="matrix(1,0,0,1,1.97279,-0.345598)" class="st1">
					<path d="M0 430.1 A42.5197 8.50394 -180 1 0 85.04 430.1 L85.04 362.07 L0 362.07 L0 430.1 Z" class="st2"/>
				</g>
				<path d="M0 430.1 A42.5197 8.50394 -180 1 0 85.04 430.1 L85.04 362.07 L0 362.07 L0 430.1 Z" class="st3"/>
			</g>
			<g id="shape69-57">
				<g id="shadow69-58" transform="matrix(1,0,0,1,1.97279,-0.345598)" class="st1">
					<ellipse cx="42.5197" cy="362.067" rx="42.5197" ry="8.50394" class="st2"/>
				</g>
				<ellipse cx="42.5197" cy="362.067" rx="42.5197" ry="8.50394" class="st3"/>
				<text x="-417.01" y="38.32" transform="rotate(-90)" class="st5">Sample <tspan x="-409.92" dy="1.2em" class="st8">RAM</tspan></text>			</g>
		</g>
		<g id="shape76-64" transform="translate(0.25,-105.281)">
			<title>Rectangle.76</title>
			<desc>Incoming Sample Valid</desc>
			<rect x="0" y="391.831" width="85.0394" height="46.7717" class="st6"/>
			<text x="28.51" y="402.62" class="st7">Incoming <tspan x="39.18" dy="1.2em" class="st8">Sample  </tspan><tspan
						x="52.61" dy="1.2em" class="st8">Valid</tspan></text>		</g>
		<g id="shape77-69" transform="translate(252.89,-251.266)">
			<title>Rectangle.77</title>
			<desc>Sample Counter</desc>
			<g id="shadow77-70" transform="matrix(1,0,0,1,0.345598,1.97279)" class="st1">
				<rect x="0" y="367.736" width="94.4882" height="70.8661" class="st2"/>
			</g>
			<rect x="0" y="367.736" width="94.4882" height="70.8661" class="st3"/>
			<text x="26.32" y="398.97" class="st5">Sample <tspan x="24.2" dy="1.2em" class="st8">Counter</tspan></text>		</g>
		<g id="shape79-76" transform="translate(204.344,-226.462)">
			<title>Rounded Rectangle</title>
			<desc>Controller</desc>
			<g id="shadow79-77" transform="matrix(1,0,0,1,0.345598,1.97279)" class="st1">
				<path d="M39.69 438.6 L357.17 438.6 A39.6844 39.6844 -180 0 0 396.85 398.92 L396.85 371.99 A39.6844 39.6844 -180
							 0 0 357.17 332.3 L39.69 332.3 A39.6844 39.6844 -180 0 0 0 371.99 L0 398.92 A39.6844 39.6844 -180 0 0
							 39.69 438.6 Z" class="st10"/>
				<text x="169.71" y="430.4" class="st11">Controller</text>			</g>
			<path d="M39.69 438.6 L357.17 438.6 A39.6844 39.6844 -180 0 0 396.85 398.92 L396.85 371.99 A39.6844 39.6844 -180 0 0
						 357.17 332.3 L39.69 332.3 A39.6844 39.6844 -180 0 0 0 371.99 L0 398.92 A39.6844 39.6844 -180 0 0 39.69 438.6
						 Z" class="st12"/>
			<text x="169.71" y="430.4" class="st7">Controller</text>		</g>
		<g id="shape80-84" transform="translate(392.376,-251.266)">
			<title>Rectangle.80</title>
			<desc>Branch Counter</desc>
			<g id="shadow80-85" transform="matrix(1,0,0,1,0.345598,1.97279)" class="st1">
				<rect x="0" y="367.736" width="94.4882" height="70.8661" class="st2"/>
			</g>
			<rect x="0" y="367.736" width="94.4882" height="70.8661" class="st3"/>
			<text x="27.33" y="398.97" class="st5">Branch <tspan x="24.2" dy="1.2em" class="st8">Counter</tspan></text>		</g>
		<g id="shape81-91" transform="translate(432.533,-251.266)">
			<title>Dynamic connector.81</title>
			<path d="M7.09 438.6 L7.09 480.6" class="st13"/>
		</g>
		<g id="shape82-97" transform="translate(300.134,-251.266)">
			<title>Dynamic connector.82</title>
			<path d="M0 438.6 L0 530.16 L89.93 530.16" class="st13"/>
		</g>
		<g id="shape83-102" transform="translate(293.047,-251.266)">
			<title>Dynamic connector.83</title>
			<path d="M7.09 438.6 L7.09 587.47" class="st13"/>
		</g>
		<g id="shape84-107" transform="translate(342.654,-45.7537)">
			<title>Dynamic connector.84</title>
			<path d="M0 431.52 L58.04 431.52" class="st13"/>
		</g>
		<g id="shape85-112" transform="translate(432.533,-117.187)">
			<title>Dynamic connector.85</title>
			<path d="M7.09 438.6 L7.09 464.02" class="st13"/>
		</g>
		<g id="shape86-117" transform="translate(471.51,-45.7537)">
			<title>Dynamic connector.86</title>
			<path d="M0 431.52 L31.94 431.52" class="st13"/>
		</g>
		<g id="shape87-122" transform="translate(486.864,-286.699)">
			<title>Dynamic connector.87</title>
			<path d="M0 438.6 L91.65 438.6 L91.65 542.11" class="st13"/>
		</g>
		<g id="shape88-127" transform="translate(555.486,-144.021)">
			<title>Dynamic connector.88</title>
			<path d="M-1.06 438.6 L-13.11 438.6 L-13.11 490.85" class="st13"/>
		</g>
		<g id="shape89-132" transform="translate(574.266,-52.8403)">
			<title>Dynamic connector.89</title>
			<path d="M0 438.6 L38.98 438.6 L38.98 331.36 L35.39 331.36" class="st13"/>
		</g>
		<g id="shape90-137" transform="translate(708.911,-204.494)">
			<title>Rectangle.90</title>
			<desc>Outgoing Sample Valid</desc>
			<rect x="0" y="391.831" width="85.0394" height="46.7717" class="st6"/>
			<text x="4" y="411.02" class="st7">Outgoing <tspan x="4" dy="1.2em" class="st8">Sample Valid</tspan></text>		</g>
		<g id="shape91-141" transform="translate(574.266,-45.7537)">
			<title>Dynamic connector.91</title>
			<path d="M0 431.52 L127.61 431.52" class="st13"/>
		</g>
		<g id="shape92-146" transform="translate(486.864,-286.699)">
			<title>Dynamic connector.92</title>
			<path d="M0 438.6 L179.53 438.6 L179.53 497.42 L215.01 497.42" class="st13"/>
		</g>
		<g id="shape93-151" transform="translate(580.584,345.807) rotate(90)">
			<title>Trapezoid.93</title>
			<desc>Reset ACC</desc>
			<g id="shadow93-152" transform="matrix(1,0,0,1,1.97279,-0.345598)" class="st1">
				<path d="M0 438.6 L64.25 438.6 L48.19 390.41 L16.06 390.41 L0 438.6 Z" class="st2"/>
			</g>
			<path d="M0 438.6 L64.25 438.6 L48.19 390.41 L16.06 390.41 L0 438.6 Z" class="st3"/>
			<text x="-435.18" y="35.13" transform="rotate(-90)" class="st9">Reset ACC</text>		</g>
		<g id="shape94-157" transform="translate(85.2894,-75.9056)">
			<title>Dynamic connector.94</title>
			<path d="M0 445.57 L49.65 445.78" class="st13"/>
		</g>
		<g id="shape95-162" transform="translate(190.171,-45.6525)">
			<title>Dynamic connector.95</title>
			<path d="M0 431.62 L60.4 431.44" class="st13"/>
		</g>
		<g id="shape96-167" transform="translate(85.2894,-128.667)">
			<title>Dynamic connector.96</title>
			<path d="M0 438.6 L80.79 438.6 L80.79 475.47" class="st13"/>
		</g>
		<g id="shape97-172" transform="translate(85.2894,-128.667)">
			<title>Dynamic connector.97</title>
			<path d="M0 438.6 L80.79 438.6 L80.79 280.57 L160.56 280.57" class="st13"/>
		</g>
		<g id="shape98-177" transform="translate(0.25,-391.581)">
			<title>Rectangle.98</title>
			<desc>Active Branch</desc>
			<rect x="0" y="391.831" width="85.0394" height="46.7717" class="st6"/>
			<text x="45.83" y="411.02" class="st7">Active <tspan x="41.21" dy="1.2em" class="st8">Branch</tspan></text>		</g>
		<g id="shape99-181" transform="translate(85.2894,-414.966)">
			<title>Dynamic connector.99</title>
			<path d="M0 438.6 L354.33 438.6 L354.33 524.4" class="st13"/>
		</g>
		<g id="shape100-186" transform="translate(708.911,-263.313)">
			<title>Rectangle.100</title>
			<desc>Incoming Sample Ready</desc>
			<rect x="0" y="391.831" width="85.0394" height="46.7717" class="st6"/>
			<text x="4" y="402.62" class="st7">Incoming <tspan x="4" dy="1.2em" class="st8">Sample </tspan><tspan x="4" dy="1.2em"
						class="st8">Ready</tspan></text>		</g>
		<g id="shape101-191" transform="translate(486.864,-293.785)">
			<title>Dynamic connector.101</title>
			<path d="M0 445.69 L215.01 445.69" class="st13"/>
		</g>
		<g id="shape103-196" transform="translate(0.25,-332.053)">
			<title>Rectangle.103</title>
			<desc>Output take</desc>
			<rect x="0" y="391.831" width="85.0394" height="46.7717" class="st6"/>
			<text x="40.33" y="411.02" class="st7">Output <tspan x="56.31" dy="1.2em" class="st8">take</tspan></text>		</g>
		<g id="shape104-200" transform="translate(85.2894,-355.439)">
			<title>Dynamic connector.104</title>
			<path d="M0 438.6 L354.33 438.6 L354.33 464.87" class="st13"/>
		</g>
		<g id="shape453-205" transform="translate(85.2894,-355.439)">
			<title>Dynamic connector.453</title>
			<path d="M0 438.6 L214.84 438.6 L214.84 464.87" class="st13"/>
		</g>
	</g>
</svg>
