<?xml version="1.0" standalone="no"?>
<!DOCTYPE svg PUBLIC "-//W3C//DTD SVG 20010904//EN"
 "http://www.w3.org/TR/2001/REC-SVG-20010904/DTD/svg10.dtd">
<svg version="1.0" xmlns="http://www.w3.org/2000/svg"
 width="2756.000000pt" height="960.000000pt" viewBox="0 0 2756.000000 960.000000"
 preserveAspectRatio="xMidYMid meet">
<metadata>
Created by potrace 1.16, written by Peter Selinger 2001-2019
</metadata>
<g transform="translate(0.000000,960.000000) scale(0.100000,-0.100000)"
fill="#000000" stroke="none">
<path d="M8450 4705 l0 -1915 2620 0 2620 0 0 865 0 865 1218 -2 1217 -3 3
-52 3 -52 54 34 c30 19 56 35 59 35 11 0 116 71 116 78 0 7 -80 58 -140 90
-13 7 -39 22 -57 33 l-32 20 -3 -48 -3 -48 -1217 -3 -1218 -2 0 1010 0 1010
-2620 0 -2620 0 0 -1915z m5210 0 l0 -1885 -2590 0 -2590 0 0 1885 0 1885
2590 0 2590 0 0 -1885z"/>
<path d="M10390 4605 c0 -113 2 -135 15 -135 13 0 15 22 15 135 0 113 -2 135
-15 135 -13 0 -15 -22 -15 -135z"/>
<path d="M11850 4690 c0 -47 -11 -63 -25 -40 -10 16 -51 12 -75 -8 -34 -27
-39 -108 -10 -144 24 -31 55 -36 88 -12 20 14 22 14 22 0 0 -9 7 -16 15 -16
13 0 15 22 15 135 0 113 -2 135 -15 135 -11 0 -15 -12 -15 -50z m-18 -77 c38
-34 12 -113 -38 -113 -26 0 -44 26 -44 65 0 59 42 84 82 48z"/>
<path d="M9983 4705 c-82 -35 -84 -178 -3 -220 33 -17 77 -19 114 -5 24 9 26
14 26 70 l0 61 -47 -3 c-55 -3 -65 -21 -15 -26 32 -3 33 -5 30 -40 -3 -35 -5
-37 -43 -40 -56 -4 -90 31 -90 93 0 59 33 95 87 95 22 0 48 -5 59 -10 15 -9
19 -7 19 5 0 33 -81 45 -137 20z"/>
<path d="M10944 4707 c-2 -7 -3 -62 -2 -123 l3 -109 68 -3 c55 -2 67 0 67 13
0 11 -12 15 -50 15 l-50 0 0 45 0 45 45 0 c33 0 45 4 45 15 0 11 -12 15 -45
15 -45 0 -45 0 -45 35 l0 35 50 0 c38 0 50 4 50 15 0 20 -128 22 -136 2z"/>
<path d="M10213 4650 c-50 -20 -60 -114 -17 -157 22 -22 32 -25 67 -20 54 7
77 35 77 94 0 74 -57 111 -127 83z m87 -39 c27 -51 2 -111 -45 -111 -50 0 -75
72 -38 112 22 24 69 24 83 -1z"/>
<path d="M10498 4653 c-10 -2 -18 -10 -18 -17 0 -8 16 -12 47 -12 36 1 48 -3
51 -16 2 -12 -7 -18 -38 -23 -47 -8 -70 -27 -70 -59 0 -45 67 -74 99 -43 11
10 14 10 18 0 13 -35 23 -5 23 66 0 71 -2 82 -22 95 -22 15 -54 19 -90 9z m82
-111 c0 -25 -19 -42 -47 -42 -28 0 -40 24 -23 45 18 22 70 20 70 -3z"/>
<path d="M10650 4651 c0 -4 15 -48 33 -97 31 -83 32 -92 20 -123 -13 -30 -12
-32 4 -29 13 2 30 36 60 118 46 126 49 140 30 140 -7 0 -23 -31 -36 -71 -13
-39 -26 -67 -31 -63 -4 5 -18 37 -30 72 -13 35 -29 62 -36 62 -8 0 -14 -4 -14
-9z"/>
<path d="M11140 4565 c0 -78 3 -95 15 -95 12 0 15 14 15 63 0 49 4 68 18 80
45 41 72 13 72 -75 0 -54 3 -68 15 -68 12 0 15 15 15 75 0 62 -4 79 -20 95
-23 23 -60 26 -79 8 -11 -10 -14 -10 -18 0 -3 6 -11 12 -19 12 -11 0 -14 -20
-14 -95z"/>
<path d="M11365 4635 c-19 -18 -25 -35 -25 -70 0 -71 42 -106 107 -89 12 3 24
12 27 20 4 11 -3 13 -36 8 -33 -6 -44 -4 -55 11 -16 22 -17 69 -3 96 12 22 59
26 78 7 9 -9 12 -7 12 9 0 40 -68 45 -105 8z"/>
<path d="M11553 4650 c-50 -20 -60 -114 -17 -157 22 -22 32 -25 67 -20 54 7
77 35 77 94 0 74 -57 111 -127 83z m87 -39 c27 -51 2 -111 -45 -111 -50 0 -75
72 -38 112 22 24 69 24 83 -1z"/>
<path d="M11960 4642 c-16 -13 -24 -32 -27 -69 -5 -45 -2 -55 20 -77 26 -26
74 -34 111 -20 32 12 15 24 -34 24 -38 0 -52 4 -60 19 -19 36 -12 41 55 41 63
0 65 1 65 25 0 60 -82 96 -130 57z m88 -24 c22 -22 13 -28 -38 -28 -48 0 -50
1 -40 20 12 23 59 27 78 8z"/>
<path d="M12140 4565 c0 -78 3 -95 15 -95 12 0 15 14 15 63 0 67 17 97 53 97
9 0 17 7 17 15 0 20 -34 19 -54 -1 -15 -14 -16 -14 -16 0 0 9 -7 16 -15 16
-12 0 -15 -17 -15 -95z"/>
<path d="M19060 6535 c0 -33 -2 -34 -28 -29 -46 9 -69 -24 -62 -91 4 -42 50
-61 78 -33 9 9 12 9 12 0 0 -7 5 -12 10 -12 6 0 10 40 10 100 0 60 -4 100 -10
100 -5 0 -10 -16 -10 -35z m-12 -57 c28 -28 8 -88 -29 -88 -18 0 -29 19 -29
54 0 24 17 46 35 46 6 0 16 -5 23 -12z"/>
<path d="M19840 6535 c0 -33 -2 -34 -28 -29 -46 9 -69 -24 -62 -91 4 -42 50
-61 78 -33 9 9 12 9 12 0 0 -7 5 -12 10 -12 6 0 10 40 10 100 0 60 -4 100 -10
100 -5 0 -10 -16 -10 -35z m-12 -57 c28 -28 8 -88 -29 -88 -18 0 -29 19 -29
54 0 24 17 46 35 46 6 0 16 -5 23 -12z"/>
<path d="M18675 6535 c-20 -19 -25 -34 -25 -74 0 -42 4 -53 26 -70 15 -12 35
-21 46 -21 25 0 58 18 58 31 0 6 -7 6 -19 -1 -47 -24 -91 7 -91 65 0 58 44 89
91 65 12 -7 19 -7 19 -1 0 14 -34 31 -60 31 -11 0 -32 -11 -45 -25z"/>
<path d="M18825 6490 c-25 -28 -25 -88 0 -106 46 -34 105 -3 105 55 0 65 -65
96 -105 51z m74 -14 c31 -37 -9 -103 -46 -80 -37 23 -24 94 17 94 10 0 23 -6
29 -14z"/>
<path d="M19148 6493 c-24 -28 -28 -50 -17 -83 12 -33 43 -46 84 -36 36 9 31
27 -5 20 -32 -7 -60 8 -60 32 0 10 13 14 45 14 41 0 45 2 45 25 0 42 -63 61
-92 28z m70 -20 c2 -9 -8 -13 -32 -13 -34 0 -44 8 -29 24 11 11 56 2 61 -11z"/>
<path d="M19270 6503 c0 -26 44 -133 54 -133 7 0 19 21 27 48 l15 47 15 -45
c23 -68 41 -63 65 20 16 52 18 70 9 70 -7 0 -18 -22 -25 -50 -7 -27 -15 -48
-20 -45 -4 2 -13 25 -20 50 -15 55 -30 53 -47 -5 -7 -23 -15 -45 -17 -48 -3
-2 -11 17 -19 44 -7 26 -19 50 -25 52 -7 2 -12 0 -12 -5z"/>
<path d="M19505 6490 c-25 -28 -25 -88 0 -106 46 -34 105 -3 105 55 0 65 -65
96 -105 51z m74 -14 c31 -37 -9 -103 -46 -80 -37 23 -24 94 17 94 10 0 23 -6
29 -14z"/>
<path d="M19650 6440 c0 -54 3 -70 14 -70 11 0 16 15 18 53 2 43 7 54 26 62
12 5 22 13 22 17 0 12 -35 9 -48 -4 -9 -9 -12 -9 -12 0 0 7 -4 12 -10 12 -6 0
-10 -30 -10 -70z"/>
<path d="M19250 6210 c0 -34 -27 -76 -57 -88 -20 -9 -584 -13 -2078 -15 -2226
-4 -2133 -2 -2301 -57 -111 -37 -225 -118 -267 -190 -18 -30 -18 -30 5 -39 19
-8 30 -3 63 28 51 48 95 73 176 99 140 46 79 45 2279 51 1638 5 2100 9 2117
18 12 7 38 32 58 55 l36 43 19 -25 c11 -14 20 -28 20 -32 0 -3 17 -17 38 -30
l37 -23 2095 -6 c1909 -5 2102 -7 2177 -22 135 -28 257 -86 303 -144 16 -20
22 -22 39 -13 12 6 21 16 21 21 0 6 -30 41 -67 78 -100 98 -185 135 -399 173
-52 9 -575 13 -2137 17 l-2069 6 -24 28 c-14 16 -24 41 -24 58 0 26 -3 29 -30
29 -24 0 -30 -4 -30 -20z"/>
<path d="M16610 5460 c0 -82 3 -100 15 -100 11 0 15 13 15 54 0 46 3 56 20 61
32 10 40 -3 40 -61 0 -41 4 -54 15 -54 19 0 20 74 2 110 -10 19 -20 25 -45 24
-30 -2 -32 0 -32 32 0 24 -5 34 -15 34 -12 0 -15 -18 -15 -100z"/>
<path d="M17050 5460 c0 -82 3 -100 15 -100 11 0 15 11 15 37 l0 36 28 -36
c29 -38 61 -52 43 -19 -5 10 -17 24 -25 32 -21 17 -20 29 6 57 32 34 13 41
-22 8 l-30 -29 0 57 c0 44 -3 57 -15 57 -12 0 -15 -18 -15 -100z"/>
<path d="M17260 5460 c0 -60 4 -100 10 -100 6 0 10 4 10 9 0 5 13 4 29 -2 42
-15 71 11 71 64 0 48 -23 73 -62 65 -26 -5 -28 -4 -28 29 0 24 -5 35 -15 35
-12 0 -15 -18 -15 -100z m88 8 c17 -17 15 -63 -3 -78 -8 -6 -23 -9 -35 -5 -15
5 -20 15 -20 45 0 46 30 66 58 38z"/>
<path d="M17420 5546 c0 -9 7 -16 16 -16 17 0 14 22 -4 28 -7 2 -12 -3 -12
-12z"/>
<path d="M16475 5525 c-20 -19 -25 -34 -25 -74 0 -42 4 -53 26 -70 15 -12 35
-21 46 -21 25 0 58 18 58 31 0 6 -7 6 -19 -1 -47 -24 -91 7 -91 65 0 58 44 89
91 65 12 -7 19 -7 19 -1 0 14 -34 31 -60 31 -11 0 -32 -11 -45 -25z"/>
<path d="M21020 5455 l0 -95 35 0 c88 0 131 71 90 149 -15 30 -39 41 -92 41
l-33 0 0 -95z m94 56 c26 -29 24 -91 -4 -113 -12 -10 -33 -18 -46 -18 -23 0
-24 3 -24 75 l0 75 28 0 c16 0 37 -9 46 -19z"/>
<path d="M17500 5521 c0 -11 -6 -22 -12 -25 -10 -5 -10 -7 0 -12 7 -3 12 -26
12 -59 0 -53 8 -65 46 -65 21 0 17 17 -6 23 -16 4 -20 14 -20 51 0 39 3 46 20
46 11 0 20 5 20 10 0 6 -9 10 -20 10 -13 0 -20 7 -20 20 0 11 -4 20 -10 20 -5
0 -10 -9 -10 -19z"/>
<path d="M21340 5521 c0 -11 -6 -22 -12 -25 -10 -5 -10 -7 0 -12 7 -3 12 -26
12 -59 0 -53 8 -65 46 -65 21 0 17 17 -6 23 -16 4 -20 14 -20 51 0 39 3 46 20
46 11 0 20 5 20 10 0 6 -9 10 -20 10 -13 0 -20 7 -20 20 0 11 -4 20 -10 20 -5
0 -10 -9 -10 -19z"/>
<path d="M14420 5516 c0 -9 7 -16 16 -16 17 0 14 22 -4 28 -7 2 -12 -3 -12
-12z"/>
<path d="M14800 5430 c0 -60 4 -100 10 -100 6 0 10 4 10 9 0 5 13 4 29 -2 42
-15 71 11 71 64 0 48 -23 73 -62 65 -26 -5 -28 -4 -28 29 0 24 -5 35 -15 35
-12 0 -15 -18 -15 -100z m88 8 c17 -17 15 -63 -3 -78 -8 -6 -23 -9 -35 -5 -15
5 -20 15 -20 45 0 46 30 66 58 38z"/>
<path d="M14960 5516 c0 -9 7 -16 16 -16 17 0 14 22 -4 28 -7 2 -12 -3 -12
-12z"/>
<path d="M14030 5425 c0 -57 4 -95 10 -95 6 0 10 16 10 35 0 30 3 35 23 35 36
0 67 27 67 59 0 37 -28 61 -73 61 l-37 0 0 -95z m80 55 c15 -28 -4 -60 -35
-60 -22 0 -25 4 -25 40 0 36 3 40 25 40 14 0 29 -8 35 -20z"/>
<path d="M5380 5415 l0 -95 35 0 c88 0 131 71 90 149 -15 30 -39 41 -92 41
l-33 0 0 -95z m94 56 c26 -29 24 -91 -4 -113 -12 -10 -33 -18 -46 -18 -23 0
-24 3 -24 75 l0 75 28 0 c16 0 37 -9 46 -19z"/>
<path d="M14500 5491 c0 -11 -6 -22 -12 -25 -10 -5 -10 -7 0 -12 7 -3 12 -26
12 -59 0 -53 8 -65 46 -65 21 0 17 17 -6 23 -16 4 -20 14 -20 51 0 39 3 46 20
46 11 0 20 5 20 10 0 6 -9 10 -20 10 -13 0 -20 7 -20 20 0 11 -4 20 -10 20 -5
0 -10 -9 -10 -19z"/>
<path d="M15040 5491 c0 -11 -6 -22 -12 -25 -10 -5 -10 -7 0 -12 7 -3 12 -26
12 -59 0 -53 8 -65 46 -65 21 0 17 17 -6 23 -16 4 -20 14 -20 51 0 39 3 46 20
46 11 0 20 5 20 10 0 6 -9 10 -20 10 -13 0 -20 7 -20 20 0 11 -4 20 -10 20 -5
0 -10 -9 -10 -19z"/>
<path d="M5700 5481 c0 -11 -6 -22 -12 -25 -10 -5 -10 -7 0 -12 7 -3 12 -26
12 -59 0 -53 8 -65 46 -65 21 0 17 17 -6 23 -16 4 -20 14 -20 51 0 39 3 46 20
46 11 0 20 5 20 10 0 6 -9 10 -20 10 -13 0 -20 7 -20 20 0 11 -4 20 -10 20 -5
0 -10 -9 -10 -19z"/>
<path d="M16788 5483 c-24 -28 -28 -50 -17 -83 12 -33 43 -46 84 -36 36 9 31
27 -5 20 -32 -7 -60 8 -60 32 0 10 13 14 45 14 41 0 45 2 45 25 0 42 -63 61
-92 28z m70 -20 c2 -9 -8 -13 -32 -13 -34 0 -44 8 -29 24 11 11 56 2 61 -11z"/>
<path d="M16943 5494 c-20 -9 -35 -68 -24 -97 16 -43 86 -48 99 -9 3 10 -2 10
-22 1 -33 -15 -56 2 -56 41 0 39 23 56 55 42 27 -12 33 -4 13 16 -12 12 -43
15 -65 6z"/>
<path d="M17420 5430 c0 -56 3 -70 15 -70 12 0 15 14 15 70 0 56 -3 70 -15 70
-12 0 -15 -14 -15 -70z"/>
<path d="M17603 5494 c-25 -11 -14 -53 18 -69 38 -20 33 -41 -10 -39 -38 2
-41 -13 -4 -22 57 -15 83 49 31 74 -39 18 -37 46 2 40 19 -3 29 -1 27 6 -4 12
-45 18 -64 10z"/>
<path d="M21203 5493 c-25 -10 -12 -20 24 -19 28 1 38 -3 41 -16 3 -13 -3 -18
-21 -18 -14 0 -35 -8 -47 -18 -19 -16 -21 -22 -11 -40 9 -18 19 -21 56 -20
l45 2 0 56 c0 31 -5 61 -12 68 -12 12 -52 15 -75 5z m65 -90 c-4 -22 -58 -31
-58 -10 0 20 10 27 37 27 18 0 24 -5 21 -17z"/>
<path d="M21443 5493 c-25 -10 -12 -20 24 -19 28 1 38 -3 41 -16 3 -13 -3 -18
-21 -18 -14 0 -35 -8 -47 -18 -19 -16 -21 -22 -11 -40 9 -18 19 -21 56 -20
l45 2 0 56 c0 31 -5 61 -12 68 -12 12 -52 15 -75 5z m65 -90 c-4 -22 -58 -31
-58 -10 0 20 10 27 37 27 18 0 24 -5 21 -17z"/>
<path d="M14193 5463 c-25 -10 -12 -20 24 -19 28 1 38 -3 41 -16 3 -13 -3 -18
-21 -18 -14 0 -35 -8 -47 -18 -19 -16 -21 -22 -11 -40 9 -18 19 -21 56 -20
l45 2 0 56 c0 31 -5 61 -12 68 -12 12 -52 15 -75 5z m65 -90 c-4 -22 -58 -31
-58 -10 0 20 10 27 37 27 18 0 24 -5 21 -17z"/>
<path d="M14320 5400 c0 -54 3 -70 14 -70 11 0 16 15 18 53 2 43 7 54 26 62
12 5 22 13 22 17 0 12 -35 9 -48 -4 -9 -9 -12 -9 -12 0 0 7 -4 12 -10 12 -6 0
-10 -30 -10 -70z"/>
<path d="M14420 5400 c0 -56 3 -70 15 -70 12 0 15 14 15 70 0 56 -3 70 -15 70
-12 0 -15 -14 -15 -70z"/>
<path d="M14580 5461 c0 -5 11 -37 24 -73 18 -47 22 -68 14 -82 -11 -20 -3
-35 12 -20 12 12 72 176 66 181 -10 11 -24 -9 -36 -52 -7 -25 -16 -45 -19 -45
-4 0 -15 23 -25 50 -16 44 -36 67 -36 41z"/>
<path d="M14960 5400 c0 -56 3 -70 15 -70 12 0 15 14 15 70 0 56 -3 70 -15 70
-12 0 -15 -14 -15 -70z"/>
<path d="M5563 5453 c-25 -10 -12 -20 24 -19 28 1 38 -3 41 -16 3 -13 -3 -18
-21 -18 -14 0 -35 -8 -47 -18 -19 -16 -21 -22 -11 -40 9 -18 19 -21 56 -20
l45 2 0 56 c0 31 -5 61 -12 68 -12 12 -52 15 -75 5z m65 -90 c-4 -22 -58 -31
-58 -10 0 20 10 27 37 27 18 0 24 -5 21 -17z"/>
<path d="M5803 5453 c-25 -10 -12 -20 24 -19 28 1 38 -3 41 -16 3 -13 -3 -18
-21 -18 -14 0 -35 -8 -47 -18 -19 -16 -21 -22 -11 -40 9 -18 19 -21 56 -20
l45 2 0 56 c0 31 -5 61 -12 68 -12 12 -52 15 -75 5z m65 -90 c-4 -22 -58 -31
-58 -10 0 20 10 27 37 27 18 0 24 -5 21 -17z"/>
<path d="M14690 4995 l0 -175 4550 0 4550 0 0 175 0 175 -4550 0 -4550 0 0
-175z m370 0 l0 -165 -180 0 -180 0 0 165 0 165 180 0 180 0 0 -165z m390 0
l0 -165 -180 0 -180 0 0 165 0 165 180 0 180 0 0 -165z m380 0 l0 -165 -185 0
-185 0 0 165 0 165 185 0 185 0 0 -165z m380 0 l0 -165 -185 0 -185 0 0 165 0
165 185 0 185 0 0 -165z m370 0 l0 -165 -180 0 -180 0 0 165 0 165 180 0 180
0 0 -165z m380 0 l0 -165 -185 0 -185 0 0 165 0 165 185 0 185 0 0 -165z m380
0 l0 -165 -185 0 -185 0 0 165 0 165 185 0 185 0 0 -165z m380 0 l0 -165 -185
0 -185 0 0 165 0 165 185 0 185 0 0 -165z m380 0 l0 -165 -185 0 -185 0 0 165
0 165 185 0 185 0 0 -165z m380 0 l0 -165 -185 0 -185 0 0 165 0 165 185 0
185 0 0 -165z m380 0 l0 -165 -185 0 -185 0 0 165 0 165 185 0 185 0 0 -165z
m360 0 l0 -165 -175 0 -175 0 0 165 0 165 175 0 175 0 0 -165z m390 0 l0 -165
-180 0 -180 0 0 165 0 165 180 0 180 0 0 -165z m380 0 l0 -165 -185 0 -185 0
0 165 0 165 185 0 185 0 0 -165z m380 0 l0 -165 -185 0 -185 0 0 165 0 165
185 0 185 0 0 -165z m380 0 l0 -165 -185 0 -185 0 0 165 0 165 185 0 185 0 0
-165z m380 0 l0 -165 -185 0 -185 0 0 165 0 165 185 0 185 0 0 -165z m380 0
l0 -165 -185 0 -185 0 0 165 0 165 185 0 185 0 0 -165z m380 0 l0 -165 -185 0
-185 0 0 165 0 165 185 0 185 0 0 -165z m380 0 l0 -165 -185 0 -185 0 0 165 0
165 185 0 185 0 0 -165z m380 0 l0 -165 -185 0 -185 0 0 165 0 165 185 0 185
0 0 -165z m370 0 l0 -165 -180 0 -180 0 0 165 0 165 180 0 180 0 0 -165z m380
0 l0 -165 -185 0 -185 0 0 165 0 165 185 0 185 0 0 -165z m380 0 l0 -165 -185
0 -185 0 0 165 0 165 185 0 185 0 0 -165z"/>
<path d="M14859 5039 l-24 -20 23 6 c21 6 22 4 22 -49 0 -49 -2 -56 -20 -56
-11 0 -20 -4 -20 -10 0 -5 20 -10 45 -10 25 0 45 5 45 10 0 6 -7 10 -15 10
-12 0 -15 14 -15 70 0 39 -4 70 -9 70 -5 0 -19 -9 -32 -21z"/>
<path d="M15226 5038 c-23 -32 -21 -101 3 -122 26 -23 62 -17 79 14 14 28 10
93 -8 115 -18 22 -57 18 -74 -7z m68 -30 c18 -52 -29 -118 -55 -76 -10 15 -12
69 -3 93 10 25 47 14 58 -17z"/>
<path d="M15619 5039 l-24 -20 23 6 c21 6 22 4 22 -49 0 -49 -2 -56 -20 -56
-11 0 -20 -4 -20 -10 0 -5 20 -10 45 -10 25 0 45 5 45 10 0 6 -7 10 -15 10
-12 0 -15 14 -15 70 0 39 -4 70 -9 70 -5 0 -19 -9 -32 -21z"/>
<path d="M15999 5039 l-24 -20 23 6 c21 6 22 4 22 -49 0 -49 -2 -56 -20 -56
-11 0 -20 -4 -20 -10 0 -5 20 -10 45 -10 25 0 45 5 45 10 0 6 -7 10 -15 10
-12 0 -15 14 -15 70 0 39 -4 70 -9 70 -5 0 -19 -9 -32 -21z"/>
<path d="M16356 5038 c-23 -32 -21 -101 3 -122 26 -23 62 -17 79 14 14 28 10
93 -8 115 -18 22 -57 18 -74 -7z m68 -30 c18 -52 -29 -118 -55 -76 -10 15 -12
69 -3 93 10 25 47 14 58 -17z"/>
<path d="M16749 5039 l-24 -20 23 6 c21 6 22 4 22 -49 0 -49 -2 -56 -20 -56
-11 0 -20 -4 -20 -10 0 -5 20 -10 45 -10 25 0 45 5 45 10 0 6 -7 10 -15 10
-12 0 -15 14 -15 70 0 39 -4 70 -9 70 -5 0 -19 -9 -32 -21z"/>
<path d="M17129 5039 l-24 -20 23 6 c21 6 22 4 22 -49 0 -49 -2 -56 -20 -56
-11 0 -20 -4 -20 -10 0 -5 20 -10 45 -10 25 0 45 5 45 10 0 6 -7 10 -15 10
-12 0 -15 14 -15 70 0 39 -4 70 -9 70 -5 0 -19 -9 -32 -21z"/>
<path d="M17509 5039 l-24 -20 23 6 c21 6 22 4 22 -49 0 -49 -2 -56 -20 -56
-11 0 -20 -4 -20 -10 0 -5 20 -10 45 -10 25 0 45 5 45 10 0 6 -7 10 -15 10
-12 0 -15 14 -15 70 0 39 -4 70 -9 70 -5 0 -19 -9 -32 -21z"/>
<path d="M17889 5039 l-24 -20 23 6 c21 6 22 4 22 -49 0 -49 -2 -56 -20 -56
-11 0 -20 -4 -20 -10 0 -5 20 -10 45 -10 25 0 45 5 45 10 0 6 -7 10 -15 10
-12 0 -15 14 -15 70 0 39 -4 70 -9 70 -5 0 -19 -9 -32 -21z"/>
<path d="M18256 5038 c-23 -32 -21 -101 3 -122 26 -23 62 -17 79 14 14 28 10
93 -8 115 -18 22 -57 18 -74 -7z m68 -30 c18 -52 -29 -118 -55 -76 -10 15 -12
69 -3 93 10 25 47 14 58 -17z"/>
<path d="M18649 5039 l-24 -20 23 6 c21 6 22 4 22 -49 0 -49 -2 -56 -20 -56
-11 0 -20 -4 -20 -10 0 -5 20 -10 45 -10 25 0 45 5 45 10 0 6 -7 10 -15 10
-12 0 -15 14 -15 70 0 39 -4 70 -9 70 -5 0 -19 -9 -32 -21z"/>
<path d="M19016 5038 c-23 -32 -21 -101 3 -122 26 -23 62 -17 79 14 14 28 10
93 -8 115 -18 22 -57 18 -74 -7z m68 -30 c18 -52 -29 -118 -55 -76 -10 15 -12
69 -3 93 10 25 47 14 58 -17z"/>
<path d="M19409 5039 l-24 -20 23 6 c21 6 22 4 22 -49 0 -49 -2 -56 -20 -56
-11 0 -20 -4 -20 -10 0 -5 20 -10 45 -10 25 0 45 5 45 10 0 6 -7 10 -15 10
-12 0 -15 14 -15 70 0 39 -4 70 -9 70 -5 0 -19 -9 -32 -21z"/>
<path d="M19766 5038 c-23 -32 -21 -101 3 -122 26 -23 62 -17 79 14 14 28 10
93 -8 115 -18 22 -57 18 -74 -7z m68 -30 c18 -52 -29 -118 -55 -76 -10 15 -12
69 -3 93 10 25 47 14 58 -17z"/>
<path d="M20159 5039 l-24 -20 23 6 c21 6 22 4 22 -49 0 -49 -2 -56 -20 -56
-11 0 -20 -4 -20 -10 0 -5 20 -10 45 -10 25 0 45 5 45 10 0 6 -7 10 -15 10
-12 0 -15 14 -15 70 0 39 -4 70 -9 70 -5 0 -19 -9 -32 -21z"/>
<path d="M20539 5039 l-24 -20 23 6 c21 6 22 4 22 -49 0 -49 -2 -56 -20 -56
-11 0 -20 -4 -20 -10 0 -5 20 -10 45 -10 25 0 45 5 45 10 0 6 -7 10 -15 10
-12 0 -15 14 -15 70 0 39 -4 70 -9 70 -5 0 -19 -9 -32 -21z"/>
<path d="M20919 5039 l-24 -20 23 6 c21 6 22 4 22 -49 0 -49 -2 -56 -20 -56
-11 0 -20 -4 -20 -10 0 -5 20 -10 45 -10 25 0 45 5 45 10 0 6 -7 10 -15 10
-12 0 -15 14 -15 70 0 39 -4 70 -9 70 -5 0 -19 -9 -32 -21z"/>
<path d="M21286 5038 c-23 -32 -21 -101 3 -122 26 -23 62 -17 79 14 14 28 10
93 -8 115 -18 22 -57 18 -74 -7z m68 -30 c18 -52 -29 -118 -55 -76 -10 15 -12
69 -3 93 10 25 47 14 58 -17z"/>
<path d="M21679 5039 l-24 -20 23 6 c21 6 22 4 22 -49 0 -49 -2 -56 -20 -56
-11 0 -20 -4 -20 -10 0 -5 20 -10 45 -10 25 0 45 5 45 10 0 6 -7 10 -15 10
-12 0 -15 14 -15 70 0 39 -4 70 -9 70 -5 0 -19 -9 -32 -21z"/>
<path d="M22046 5038 c-23 -32 -21 -101 3 -122 26 -23 62 -17 79 14 14 28 10
93 -8 115 -18 22 -57 18 -74 -7z m68 -30 c18 -52 -29 -118 -55 -76 -10 15 -12
69 -3 93 10 25 47 14 58 -17z"/>
<path d="M22439 5039 l-24 -20 23 6 c21 6 22 4 22 -49 0 -49 -2 -56 -20 -56
-11 0 -20 -4 -20 -10 0 -5 20 -10 45 -10 25 0 45 5 45 10 0 6 -7 10 -15 10
-12 0 -15 14 -15 70 0 39 -4 70 -9 70 -5 0 -19 -9 -32 -21z"/>
<path d="M22809 5039 l-24 -20 23 6 c21 6 22 4 22 -49 0 -49 -2 -56 -20 -56
-11 0 -20 -4 -20 -10 0 -5 20 -10 45 -10 25 0 45 5 45 10 0 6 -7 10 -15 10
-12 0 -15 14 -15 70 0 39 -4 70 -9 70 -5 0 -19 -9 -32 -21z"/>
<path d="M23176 5038 c-23 -32 -21 -101 3 -122 26 -23 62 -17 79 14 14 28 10
93 -8 115 -18 22 -57 18 -74 -7z m68 -30 c18 -52 -29 -118 -55 -76 -10 15 -12
69 -3 93 10 25 47 14 58 -17z"/>
<path d="M23569 5039 l-24 -20 23 6 c21 6 22 4 22 -49 0 -49 -2 -56 -20 -56
-11 0 -20 -4 -20 -10 0 -5 20 -10 45 -10 25 0 45 5 45 10 0 6 -7 10 -15 10
-12 0 -15 14 -15 70 0 39 -4 70 -9 70 -5 0 -19 -9 -32 -21z"/>
<path d="M3410 4985 l0 -175 2280 0 2280 0 0 175 0 175 -2280 0 -2280 0 0
-175z m380 0 l0 -165 -185 0 -185 0 0 165 0 165 185 0 185 0 0 -165z m380 0
l0 -165 -185 0 -185 0 0 165 0 165 185 0 185 0 0 -165z m380 0 l0 -165 -185 0
-185 0 0 165 0 165 185 0 185 0 0 -165z m370 0 l0 -165 -180 0 -180 0 0 165 0
165 180 0 180 0 0 -165z m380 0 l0 -165 -185 0 -185 0 0 165 0 165 185 0 185
0 0 -165z m380 0 l0 -165 -185 0 -185 0 0 165 0 165 185 0 185 0 0 -165z m380
0 l0 -165 -185 0 -185 0 0 165 0 165 185 0 185 0 0 -165z m380 0 l0 -165 -185
0 -185 0 0 165 0 165 185 0 185 0 0 -165z m380 0 l0 -165 -185 0 -185 0 0 165
0 165 185 0 185 0 0 -165z m380 0 l0 -165 -185 0 -185 0 0 165 0 165 185 0
185 0 0 -165z m380 0 l0 -165 -185 0 -185 0 0 165 0 165 185 0 185 0 0 -165z
m380 0 l0 -165 -185 0 -185 0 0 165 0 165 185 0 185 0 0 -165z"/>
<path d="M3579 5029 l-24 -20 23 6 c21 6 22 4 22 -49 0 -49 -2 -56 -20 -56
-11 0 -20 -4 -20 -10 0 -5 20 -10 45 -10 25 0 45 5 45 10 0 6 -7 10 -15 10
-12 0 -15 14 -15 70 0 39 -4 70 -9 70 -5 0 -19 -9 -32 -21z"/>
<path d="M3946 5028 c-23 -32 -21 -101 3 -122 26 -23 62 -17 79 14 14 28 10
93 -8 115 -18 22 -57 18 -74 -7z m68 -30 c18 -52 -29 -118 -55 -76 -10 15 -12
69 -3 93 10 25 47 14 58 -17z"/>
<path d="M4339 5029 l-24 -20 23 6 c21 6 22 4 22 -49 0 -49 -2 -56 -20 -56
-11 0 -20 -4 -20 -10 0 -5 20 -10 45 -10 25 0 45 5 45 10 0 6 -7 10 -15 10
-12 0 -15 14 -15 70 0 39 -4 70 -9 70 -5 0 -19 -9 -32 -21z"/>
<path d="M4719 5029 l-24 -20 23 6 c21 6 22 4 22 -49 0 -49 -2 -56 -20 -56
-11 0 -20 -4 -20 -10 0 -5 20 -10 45 -10 25 0 45 5 45 10 0 6 -7 10 -15 10
-12 0 -15 14 -15 70 0 39 -4 70 -9 70 -5 0 -19 -9 -32 -21z"/>
<path d="M5089 5029 l-24 -20 23 6 c21 6 22 4 22 -49 0 -49 -2 -56 -20 -56
-11 0 -20 -4 -20 -10 0 -5 20 -10 45 -10 25 0 45 5 45 10 0 6 -7 10 -15 10
-12 0 -15 14 -15 70 0 39 -4 70 -9 70 -5 0 -19 -9 -32 -21z"/>
<path d="M5456 5028 c-23 -32 -21 -101 3 -122 26 -23 62 -17 79 14 14 28 10
93 -8 115 -18 22 -57 18 -74 -7z m68 -30 c18 -52 -29 -118 -55 -76 -10 15 -12
69 -3 93 10 25 47 14 58 -17z"/>
<path d="M5849 5029 l-24 -20 23 6 c21 6 22 4 22 -49 0 -49 -2 -56 -20 -56
-11 0 -20 -4 -20 -10 0 -5 20 -10 45 -10 25 0 45 5 45 10 0 6 -7 10 -15 10
-12 0 -15 14 -15 70 0 39 -4 70 -9 70 -5 0 -19 -9 -32 -21z"/>
<path d="M6216 5028 c-23 -32 -21 -101 3 -122 26 -23 62 -17 79 14 14 28 10
93 -8 115 -18 22 -57 18 -74 -7z m68 -30 c18 -52 -29 -118 -55 -76 -10 15 -12
69 -3 93 10 25 47 14 58 -17z"/>
<path d="M6609 5029 l-24 -20 23 6 c21 6 22 4 22 -49 0 -49 -2 -56 -20 -56
-11 0 -20 -4 -20 -10 0 -5 20 -10 45 -10 25 0 45 5 45 10 0 6 -7 10 -15 10
-12 0 -15 14 -15 70 0 39 -4 70 -9 70 -5 0 -19 -9 -32 -21z"/>
<path d="M6989 5029 l-24 -20 23 6 c21 6 22 4 22 -49 0 -49 -2 -56 -20 -56
-11 0 -20 -4 -20 -10 0 -5 20 -10 45 -10 25 0 45 5 45 10 0 6 -7 10 -15 10
-12 0 -15 14 -15 70 0 39 -4 70 -9 70 -5 0 -19 -9 -32 -21z"/>
<path d="M7356 5028 c-23 -32 -21 -101 3 -122 26 -23 62 -17 79 14 14 28 10
93 -8 115 -18 22 -57 18 -74 -7z m68 -30 c18 -52 -29 -118 -55 -76 -10 15 -12
69 -3 93 10 25 47 14 58 -17z"/>
<path d="M7749 5029 l-24 -20 23 6 c21 6 22 4 22 -49 0 -49 -2 -56 -20 -56
-11 0 -20 -4 -20 -10 0 -5 20 -10 45 -10 25 0 45 5 45 10 0 6 -7 10 -15 10
-12 0 -15 14 -15 70 0 39 -4 70 -9 70 -5 0 -19 -9 -32 -21z"/>
<path d="M8208 4663 l-3 -48 -1217 -3 -1218 -2 0 -40 0 -40 1218 -2 1217 -3 3
-52 3 -52 54 34 c30 19 56 35 59 35 11 0 116 71 116 78 0 7 -80 58 -140 90
-13 7 -39 22 -57 33 l-32 20 -3 -48z"/>
</g>
</svg>
